locs,techs,resource_unit
A1,demand_cooking,energy
A1,demand_electricity,energy
A1,demand_space_heat_final,energy
A1,demand_transport,energy
A1,demand_water_heat,energy
A1,solar_pv,energy_per_area
A1,solar_thermal_vt,energy_per_area
A2,demand_cooking,energy
A2,demand_electricity,energy
A2,demand_space_heat_final,energy
A2,demand_transport,energy
A2,demand_water_heat,energy
A2,solar_pv,energy_per_area
A2,solar_thermal_vt,energy_per_area
A3,demand_cooking,energy
A3,demand_electricity,energy
A3,demand_space_heat_final,energy
A3,demand_transport,energy
A3,demand_water_heat,energy
A3,solar_pv,energy_per_area
A3,solar_thermal_vt,energy_per_area
A4,demand_cooking,energy
A4,demand_electricity,energy
A4,demand_space_heat_final,energy
A4,demand_transport,energy
A4,demand_water_heat,energy
A4,solar_pv,energy_per_area
A4,solar_thermal_vt,energy_per_area
A5,demand_cooking,energy
A5,demand_electricity,energy
A5,demand_space_heat_final,energy
A5,demand_transport,energy
A5,demand_water_heat,energy
A5,solar_pv,energy_per_area
A5,solar_thermal_vt,energy_per_area
A6,demand_cooking,energy
A6,demand_electricity,energy
A6,demand_space_heat_final,energy
A6,demand_transport,energy
A6,demand_water_heat,energy
A6,solar_pv,energy_per_area
A6,solar_thermal_vt,energy_per_area
A7,demand_cooking,energy
A7,demand_electricity,energy
A7,demand_space_heat_final,energy
A7,demand_transport,energy
A7,demand_water_heat,energy
A7,solar_pv,energy_per_area
A7,solar_thermal_vt,energy_per_area
A8,demand_cooking,energy
A8,demand_electricity,energy
A8,demand_space_heat_final,energy
A8,demand_transport,energy
A8,demand_water_heat,energy
A8,solar_pv,energy_per_area
A8,solar_thermal_vt,energy_per_area
B1,demand_cooking,energy
B1,demand_electricity,energy
B1,demand_space_heat_final,energy
B1,demand_transport,energy
B1,demand_water_heat,energy
B1,solar_pv,energy_per_area
B1,solar_thermal_vt,energy_per_area
B2,demand_cooking,energy
B2,demand_electricity,energy
B2,demand_space_heat_final,energy
B2,demand_transport,energy
B2,demand_water_heat,energy
B2,solar_pv,energy_per_area
B2,solar_thermal_vt,energy_per_area
B3,demand_cooking,energy
B3,demand_electricity,energy
B3,demand_space_heat_final,energy
B3,demand_transport,energy
B3,demand_water_heat,energy
B3,solar_pv,energy_per_area
B3,solar_thermal_vt,energy_per_area
B4,demand_cooking,energy
B4,demand_electricity,energy
B4,demand_space_heat_final,energy
B4,demand_transport,energy
B4,demand_water_heat,energy
B4,solar_pv,energy_per_area
B4,solar_thermal_vt,energy_per_area
B5,demand_cooking,energy
B5,demand_electricity,energy
B5,demand_space_heat_final,energy
B5,demand_transport,energy
B5,demand_water_heat,energy
B5,solar_pv,energy_per_area
B5,solar_thermal_vt,energy_per_area
C1,demand_cooking,energy
C1,demand_electricity,energy
C1,demand_space_heat_final,energy
C1,demand_transport,energy
C1,demand_water_heat,energy
C1,solar_pv,energy_per_area
C1,solar_thermal_vt,energy_per_area
C10,demand_cooking,energy
C10,demand_electricity,energy
C10,demand_space_heat_final,energy
C10,demand_transport,energy
C10,demand_water_heat,energy
C10,solar_pv,energy_per_area
C10,solar_thermal_vt,energy_per_area
C11,demand_cooking,energy
C11,demand_electricity,energy
C11,demand_space_heat_final,energy
C11,demand_transport,energy
C11,demand_water_heat,energy
C11,solar_pv,energy_per_area
C11,solar_thermal_vt,energy_per_area
C12,demand_cooking,energy
C12,demand_electricity,energy
C12,demand_space_heat_final,energy
C12,demand_transport,energy
C12,demand_water_heat,energy
C12,solar_pv,energy_per_area
C12,solar_thermal_vt,energy_per_area
C2,demand_cooking,energy
C2,demand_electricity,energy
C2,demand_space_heat_final,energy
C2,demand_transport,energy
C2,demand_water_heat,energy
C2,solar_pv,energy_per_area
C2,solar_thermal_vt,energy_per_area
C3,demand_cooking,energy
C3,demand_electricity,energy
C3,demand_space_heat_final,energy
C3,demand_transport,energy
C3,demand_water_heat,energy
C3,solar_pv,energy_per_area
C3,solar_thermal_vt,energy_per_area
C4,demand_cooking,energy
C4,demand_electricity,energy
C4,demand_space_heat_final,energy
C4,demand_transport,energy
C4,demand_water_heat,energy
C4,solar_pv,energy_per_area
C4,solar_thermal_vt,energy_per_area
C5,demand_cooking,energy
C5,demand_electricity,energy
C5,demand_space_heat_final,energy
C5,demand_transport,energy
C5,demand_water_heat,energy
C5,solar_pv,energy_per_area
C5,solar_thermal_vt,energy_per_area
C6,demand_cooking,energy
C6,demand_electricity,energy
C6,demand_space_heat_final,energy
C6,demand_transport,energy
C6,demand_water_heat,energy
C6,solar_pv,energy_per_area
C6,solar_thermal_vt,energy_per_area
C7,demand_cooking,energy
C7,demand_electricity,energy
C7,demand_space_heat_final,energy
C7,demand_transport,energy
C7,demand_water_heat,energy
C7,solar_pv,energy_per_area
C7,solar_thermal_vt,energy_per_area
C8,demand_cooking,energy
C8,demand_electricity,energy
C8,demand_space_heat_final,energy
C8,demand_transport,energy
C8,demand_water_heat,energy
C8,solar_pv,energy_per_area
C8,solar_thermal_vt,energy_per_area
C9,demand_cooking,energy
C9,demand_electricity,energy
C9,demand_space_heat_final,energy
C9,demand_transport,energy
C9,demand_water_heat,energy
C9,solar_pv,energy_per_area
C9,solar_thermal_vt,energy_per_area
