locs,techs,storage_cap_max
A1,car_ev_battery,inf
A1,heat_storage_building_enhanced,15.0
A1,heat_storage_building_existing,15.0
A1,heat_storage_building_improved,15.0
A1,store_electricity,100.0
A1,store_heat,10.0
A2,car_ev_battery,inf
A2,heat_storage_building_enhanced,15.0
A2,heat_storage_building_existing,15.0
A2,heat_storage_building_improved,15.0
A2,store_electricity,100.0
A2,store_heat,10.0
A3,car_ev_battery,inf
A3,heat_storage_building_enhanced,15.0
A3,heat_storage_building_existing,15.0
A3,heat_storage_building_improved,15.0
A3,store_electricity,100.0
A3,store_heat,10.0
A4,car_ev_battery,inf
A4,heat_storage_building_enhanced,15.0
A4,heat_storage_building_existing,15.0
A4,heat_storage_building_improved,15.0
A4,store_electricity,100.0
A4,store_heat,10.0
A5,car_ev_battery,inf
A5,heat_storage_building_enhanced,15.0
A5,heat_storage_building_existing,15.0
A5,heat_storage_building_improved,15.0
A5,store_electricity,100.0
A5,store_heat,10.0
A6,car_ev_battery,inf
A6,heat_storage_building_enhanced,15.0
A6,heat_storage_building_existing,15.0
A6,heat_storage_building_improved,15.0
A6,store_electricity,100.0
A6,store_heat,10.0
A7,car_ev_battery,inf
A7,heat_storage_building_enhanced,15.0
A7,heat_storage_building_existing,15.0
A7,heat_storage_building_improved,15.0
A7,store_electricity,100.0
A7,store_heat,10.0
A8,car_ev_battery,inf
A8,heat_storage_building_enhanced,15.0
A8,heat_storage_building_existing,15.0
A8,heat_storage_building_improved,15.0
A8,store_electricity,100.0
A8,store_heat,10.0
B1,car_ev_battery,inf
B1,heat_storage_building_enhanced,15.0
B1,heat_storage_building_existing,15.0
B1,heat_storage_building_improved,15.0
B1,store_electricity,100.0
B1,store_heat,10.0
B2,car_ev_battery,inf
B2,heat_storage_building_enhanced,15.0
B2,heat_storage_building_existing,15.0
B2,heat_storage_building_improved,15.0
B2,store_electricity,100.0
B2,store_heat,10.0
B3,car_ev_battery,inf
B3,heat_storage_building_enhanced,15.0
B3,heat_storage_building_existing,15.0
B3,heat_storage_building_improved,15.0
B3,store_electricity,100.0
B3,store_heat,10.0
B4,car_ev_battery,inf
B4,heat_storage_building_enhanced,15.0
B4,heat_storage_building_existing,15.0
B4,heat_storage_building_improved,15.0
B4,store_electricity,100.0
B4,store_heat,10.0
B5,car_ev_battery,inf
B5,heat_storage_building_enhanced,15.0
B5,heat_storage_building_existing,15.0
B5,heat_storage_building_improved,15.0
B5,store_electricity,100.0
B5,store_heat,10.0
C1,car_ev_battery,inf
C1,heat_storage_building_enhanced,15.0
C1,heat_storage_building_existing,15.0
C1,heat_storage_building_improved,15.0
C1,store_electricity,100.0
C1,store_heat,10.0
C10,car_ev_battery,inf
C10,heat_storage_building_enhanced,15.0
C10,heat_storage_building_existing,15.0
C10,heat_storage_building_improved,15.0
C10,store_electricity,100.0
C10,store_heat,10.0
C11,car_ev_battery,inf
C11,heat_storage_building_enhanced,15.0
C11,heat_storage_building_existing,15.0
C11,heat_storage_building_improved,15.0
C11,store_electricity,100.0
C11,store_heat,10.0
C12,car_ev_battery,inf
C12,heat_storage_building_enhanced,15.0
C12,heat_storage_building_existing,15.0
C12,heat_storage_building_improved,15.0
C12,store_electricity,100.0
C12,store_heat,10.0
C2,car_ev_battery,inf
C2,heat_storage_building_enhanced,15.0
C2,heat_storage_building_existing,15.0
C2,heat_storage_building_improved,15.0
C2,store_electricity,100.0
C2,store_heat,10.0
C3,car_ev_battery,inf
C3,heat_storage_building_enhanced,15.0
C3,heat_storage_building_existing,15.0
C3,heat_storage_building_improved,15.0
C3,store_electricity,100.0
C3,store_heat,10.0
C4,car_ev_battery,inf
C4,heat_storage_building_enhanced,15.0
C4,heat_storage_building_existing,15.0
C4,heat_storage_building_improved,15.0
C4,store_electricity,100.0
C4,store_heat,10.0
C5,car_ev_battery,inf
C5,heat_storage_building_enhanced,15.0
C5,heat_storage_building_existing,15.0
C5,heat_storage_building_improved,15.0
C5,store_electricity,100.0
C5,store_heat,10.0
C6,car_ev_battery,inf
C6,heat_storage_building_enhanced,15.0
C6,heat_storage_building_existing,15.0
C6,heat_storage_building_improved,15.0
C6,store_electricity,100.0
C6,store_heat,10.0
C7,car_ev_battery,inf
C7,heat_storage_building_enhanced,15.0
C7,heat_storage_building_existing,15.0
C7,heat_storage_building_improved,15.0
C7,store_electricity,100.0
C7,store_heat,10.0
C8,car_ev_battery,inf
C8,heat_storage_building_enhanced,15.0
C8,heat_storage_building_existing,15.0
C8,heat_storage_building_improved,15.0
C8,store_electricity,100.0
C8,store_heat,10.0
C9,car_ev_battery,inf
C9,heat_storage_building_enhanced,15.0
C9,heat_storage_building_existing,15.0
C9,heat_storage_building_improved,15.0
C9,store_electricity,100.0
C9,store_heat,10.0
