locs,techs,capacity_of_the_wall
A1,heat_storage_building_enhanced,1.0
A1,heat_storage_building_existing,1.0
A1,heat_storage_building_improved,1.0
A2,heat_storage_building_enhanced,1.0
A2,heat_storage_building_existing,1.0
A2,heat_storage_building_improved,1.0
A3,heat_storage_building_enhanced,1.0
A3,heat_storage_building_existing,1.0
A3,heat_storage_building_improved,1.0
A4,heat_storage_building_enhanced,1.0
A4,heat_storage_building_existing,1.0
A4,heat_storage_building_improved,1.0
A5,heat_storage_building_enhanced,1.0
A5,heat_storage_building_existing,1.0
A5,heat_storage_building_improved,1.0
A6,heat_storage_building_enhanced,1.0
A6,heat_storage_building_existing,1.0
A6,heat_storage_building_improved,1.0
A7,heat_storage_building_enhanced,1.0
A7,heat_storage_building_existing,1.0
A7,heat_storage_building_improved,1.0
A8,heat_storage_building_enhanced,1.0
A8,heat_storage_building_existing,1.0
A8,heat_storage_building_improved,1.0
B1,heat_storage_building_enhanced,1.0
B1,heat_storage_building_existing,1.0
B1,heat_storage_building_improved,1.0
B2,heat_storage_building_enhanced,1.0
B2,heat_storage_building_existing,1.0
B2,heat_storage_building_improved,1.0
B3,heat_storage_building_enhanced,1.0
B3,heat_storage_building_existing,1.0
B3,heat_storage_building_improved,1.0
B4,heat_storage_building_enhanced,1.0
B4,heat_storage_building_existing,1.0
B4,heat_storage_building_improved,1.0
B5,heat_storage_building_enhanced,1.0
B5,heat_storage_building_existing,1.0
B5,heat_storage_building_improved,1.0
C1,heat_storage_building_enhanced,1.0
C1,heat_storage_building_existing,1.0
C1,heat_storage_building_improved,1.0
C10,heat_storage_building_enhanced,1.0
C10,heat_storage_building_existing,1.0
C10,heat_storage_building_improved,1.0
C11,heat_storage_building_enhanced,1.0
C11,heat_storage_building_existing,1.0
C11,heat_storage_building_improved,1.0
C12,heat_storage_building_enhanced,1.0
C12,heat_storage_building_existing,1.0
C12,heat_storage_building_improved,1.0
C2,heat_storage_building_enhanced,1.0
C2,heat_storage_building_existing,1.0
C2,heat_storage_building_improved,1.0
C3,heat_storage_building_enhanced,1.0
C3,heat_storage_building_existing,1.0
C3,heat_storage_building_improved,1.0
C4,heat_storage_building_enhanced,1.0
C4,heat_storage_building_existing,1.0
C4,heat_storage_building_improved,1.0
C5,heat_storage_building_enhanced,1.0
C5,heat_storage_building_existing,1.0
C5,heat_storage_building_improved,1.0
C6,heat_storage_building_enhanced,1.0
C6,heat_storage_building_existing,1.0
C6,heat_storage_building_improved,1.0
C7,heat_storage_building_enhanced,1.0
C7,heat_storage_building_existing,1.0
C7,heat_storage_building_improved,1.0
C8,heat_storage_building_enhanced,1.0
C8,heat_storage_building_existing,1.0
C8,heat_storage_building_improved,1.0
C9,heat_storage_building_enhanced,1.0
C9,heat_storage_building_existing,1.0
C9,heat_storage_building_improved,1.0
