locs,techs,export_carrier
A1,solar_pv,electricity
A1,solar_thermal_vt,water_heat
A2,solar_pv,electricity
A2,solar_thermal_vt,water_heat
A3,solar_pv,electricity
A3,solar_thermal_vt,water_heat
A4,solar_pv,electricity
A4,solar_thermal_vt,water_heat
A5,solar_pv,electricity
A5,solar_thermal_vt,water_heat
A6,solar_pv,electricity
A6,solar_thermal_vt,water_heat
A7,solar_pv,electricity
A7,solar_thermal_vt,water_heat
A8,solar_pv,electricity
A8,solar_thermal_vt,water_heat
B1,solar_pv,electricity
B1,solar_thermal_vt,water_heat
B2,solar_pv,electricity
B2,solar_thermal_vt,water_heat
B3,solar_pv,electricity
B3,solar_thermal_vt,water_heat
B4,solar_pv,electricity
B4,solar_thermal_vt,water_heat
B5,solar_pv,electricity
B5,solar_thermal_vt,water_heat
C1,solar_pv,electricity
C1,solar_thermal_vt,water_heat
C10,solar_pv,electricity
C10,solar_thermal_vt,water_heat
C11,solar_pv,electricity
C11,solar_thermal_vt,water_heat
C12,solar_pv,electricity
C12,solar_thermal_vt,water_heat
C2,solar_pv,electricity
C2,solar_thermal_vt,water_heat
C3,solar_pv,electricity
C3,solar_thermal_vt,water_heat
C4,solar_pv,electricity
C4,solar_thermal_vt,water_heat
C5,solar_pv,electricity
C5,solar_thermal_vt,water_heat
C6,solar_pv,electricity
C6,solar_thermal_vt,water_heat
C7,solar_pv,electricity
C7,solar_thermal_vt,water_heat
C8,solar_pv,electricity
C8,solar_thermal_vt,water_heat
C9,solar_pv,electricity
C9,solar_thermal_vt,water_heat
