locs,techs,storage_cap_equals
A1,car_ev_battery,75.0
A2,car_ev_battery,75.0
A3,car_ev_battery,75.0
A4,car_ev_battery,75.0
A5,car_ev_battery,75.0
A6,car_ev_battery,75.0
A7,car_ev_battery,75.0
A8,car_ev_battery,75.0
B1,car_ev_battery,75.0
B2,car_ev_battery,75.0
B3,car_ev_battery,75.0
B4,car_ev_battery,75.0
B5,car_ev_battery,75.0
C1,car_ev_battery,75.0
C10,car_ev_battery,75.0
C11,car_ev_battery,75.0
C12,car_ev_battery,75.0
C2,car_ev_battery,75.0
C3,car_ev_battery,75.0
C4,car_ev_battery,75.0
C5,car_ev_battery,75.0
C6,car_ev_battery,75.0
C7,car_ev_battery,75.0
C8,car_ev_battery,75.0
C9,car_ev_battery,75.0
