locs,techs,lookup_remotes
A1,power_lines:EG,EG::power_lines:A1
A2,power_lines:EG,EG::power_lines:A2
A3,power_lines:EG,EG::power_lines:A3
A4,power_lines:EG,EG::power_lines:A4
A5,power_lines:EG,EG::power_lines:A5
A6,power_lines:EG,EG::power_lines:A6
A7,power_lines:EG,EG::power_lines:A7
A8,power_lines:EG,EG::power_lines:A8
B1,power_lines:EG,EG::power_lines:B1
B2,power_lines:EG,EG::power_lines:B2
B3,power_lines:EG,EG::power_lines:B3
B4,power_lines:EG,EG::power_lines:B4
B5,power_lines:EG,EG::power_lines:B5
C1,power_lines:EG,EG::power_lines:C1
C10,power_lines:EG,EG::power_lines:C10
C11,power_lines:EG,EG::power_lines:C11
C12,power_lines:EG,EG::power_lines:C12
C2,power_lines:EG,EG::power_lines:C2
C3,power_lines:EG,EG::power_lines:C3
C4,power_lines:EG,EG::power_lines:C4
C5,power_lines:EG,EG::power_lines:C5
C6,power_lines:EG,EG::power_lines:C6
C7,power_lines:EG,EG::power_lines:C7
C8,power_lines:EG,EG::power_lines:C8
C9,power_lines:EG,EG::power_lines:C9
EG,power_lines:A1,A1::power_lines:EG
EG,power_lines:A2,A2::power_lines:EG
EG,power_lines:A3,A3::power_lines:EG
EG,power_lines:A4,A4::power_lines:EG
EG,power_lines:A5,A5::power_lines:EG
EG,power_lines:A6,A6::power_lines:EG
EG,power_lines:A7,A7::power_lines:EG
EG,power_lines:A8,A8::power_lines:EG
EG,power_lines:B1,B1::power_lines:EG
EG,power_lines:B2,B2::power_lines:EG
EG,power_lines:B3,B3::power_lines:EG
EG,power_lines:B4,B4::power_lines:EG
EG,power_lines:B5,B5::power_lines:EG
EG,power_lines:C1,C1::power_lines:EG
EG,power_lines:C10,C10::power_lines:EG
EG,power_lines:C11,C11::power_lines:EG
EG,power_lines:C12,C12::power_lines:EG
EG,power_lines:C2,C2::power_lines:EG
EG,power_lines:C3,C3::power_lines:EG
EG,power_lines:C4,C4::power_lines:EG
EG,power_lines:C5,C5::power_lines:EG
EG,power_lines:C6,C6::power_lines:EG
EG,power_lines:C7,C7::power_lines:EG
EG,power_lines:C8,C8::power_lines:EG
EG,power_lines:C9,C9::power_lines:EG
