costs,locs,techs,cost_om_annual
monetary,A1,air_source_hp,100.0
monetary,A1,car_ev,0.0
monetary,A1,car_ice,0.0
monetary,A1,electric_heater,8.0
monetary,A1,ground_source_hp,100.0
monetary,A1,home_v1g_charging,13.46
monetary,A1,home_v2g_charging,13.46
monetary,A1,public_v1g_charging,13.46
monetary,A1,solar_pv,20.0
monetary,A1,store_electricity,7.22
monetary,A2,air_source_hp,100.0
monetary,A2,car_ev,0.0
monetary,A2,car_ice,0.0
monetary,A2,electric_heater,8.0
monetary,A2,ground_source_hp,100.0
monetary,A2,home_v1g_charging,13.46
monetary,A2,home_v2g_charging,13.46
monetary,A2,public_v1g_charging,13.46
monetary,A2,solar_pv,20.0
monetary,A2,store_electricity,7.22
monetary,A3,air_source_hp,100.0
monetary,A3,car_ev,0.0
monetary,A3,car_ice,0.0
monetary,A3,electric_heater,8.0
monetary,A3,ground_source_hp,100.0
monetary,A3,home_v1g_charging,13.46
monetary,A3,home_v2g_charging,13.46
monetary,A3,public_v1g_charging,13.46
monetary,A3,solar_pv,20.0
monetary,A3,store_electricity,7.22
monetary,A4,air_source_hp,100.0
monetary,A4,car_ev,0.0
monetary,A4,car_ice,0.0
monetary,A4,electric_heater,8.0
monetary,A4,ground_source_hp,100.0
monetary,A4,home_v1g_charging,13.46
monetary,A4,home_v2g_charging,13.46
monetary,A4,public_v1g_charging,13.46
monetary,A4,solar_pv,20.0
monetary,A4,store_electricity,7.22
monetary,A5,air_source_hp,100.0
monetary,A5,car_ev,0.0
monetary,A5,car_ice,0.0
monetary,A5,electric_heater,8.0
monetary,A5,ground_source_hp,100.0
monetary,A5,home_v1g_charging,13.46
monetary,A5,home_v2g_charging,13.46
monetary,A5,public_v1g_charging,13.46
monetary,A5,solar_pv,20.0
monetary,A5,store_electricity,7.22
monetary,A6,air_source_hp,100.0
monetary,A6,car_ev,0.0
monetary,A6,car_ice,0.0
monetary,A6,electric_heater,8.0
monetary,A6,ground_source_hp,100.0
monetary,A6,home_v1g_charging,13.46
monetary,A6,home_v2g_charging,13.46
monetary,A6,public_v1g_charging,13.46
monetary,A6,solar_pv,20.0
monetary,A6,store_electricity,7.22
monetary,A7,air_source_hp,100.0
monetary,A7,car_ev,0.0
monetary,A7,car_ice,0.0
monetary,A7,electric_heater,8.0
monetary,A7,ground_source_hp,100.0
monetary,A7,home_v1g_charging,13.46
monetary,A7,home_v2g_charging,13.46
monetary,A7,public_v1g_charging,13.46
monetary,A7,solar_pv,20.0
monetary,A7,store_electricity,7.22
monetary,A8,air_source_hp,100.0
monetary,A8,car_ev,0.0
monetary,A8,car_ice,0.0
monetary,A8,electric_heater,8.0
monetary,A8,ground_source_hp,100.0
monetary,A8,home_v1g_charging,13.46
monetary,A8,home_v2g_charging,13.46
monetary,A8,public_v1g_charging,13.46
monetary,A8,solar_pv,20.0
monetary,A8,store_electricity,7.22
monetary,B1,air_source_hp,100.0
monetary,B1,car_ev,0.0
monetary,B1,car_ice,0.0
monetary,B1,electric_heater,8.0
monetary,B1,ground_source_hp,100.0
monetary,B1,home_v1g_charging,13.46
monetary,B1,home_v2g_charging,13.46
monetary,B1,public_v1g_charging,13.46
monetary,B1,solar_pv,20.0
monetary,B1,store_electricity,7.22
monetary,B2,air_source_hp,100.0
monetary,B2,car_ev,0.0
monetary,B2,car_ice,0.0
monetary,B2,electric_heater,8.0
monetary,B2,ground_source_hp,100.0
monetary,B2,home_v1g_charging,13.46
monetary,B2,home_v2g_charging,13.46
monetary,B2,public_v1g_charging,13.46
monetary,B2,solar_pv,20.0
monetary,B2,store_electricity,7.22
monetary,B3,air_source_hp,100.0
monetary,B3,car_ev,0.0
monetary,B3,car_ice,0.0
monetary,B3,electric_heater,8.0
monetary,B3,ground_source_hp,100.0
monetary,B3,home_v1g_charging,13.46
monetary,B3,home_v2g_charging,13.46
monetary,B3,public_v1g_charging,13.46
monetary,B3,solar_pv,20.0
monetary,B3,store_electricity,7.22
monetary,B4,air_source_hp,100.0
monetary,B4,car_ev,0.0
monetary,B4,car_ice,0.0
monetary,B4,electric_heater,8.0
monetary,B4,ground_source_hp,100.0
monetary,B4,home_v1g_charging,13.46
monetary,B4,home_v2g_charging,13.46
monetary,B4,public_v1g_charging,13.46
monetary,B4,solar_pv,20.0
monetary,B4,store_electricity,7.22
monetary,B5,air_source_hp,100.0
monetary,B5,car_ev,0.0
monetary,B5,car_ice,0.0
monetary,B5,electric_heater,8.0
monetary,B5,ground_source_hp,100.0
monetary,B5,home_v1g_charging,13.46
monetary,B5,home_v2g_charging,13.46
monetary,B5,public_v1g_charging,13.46
monetary,B5,solar_pv,20.0
monetary,B5,store_electricity,7.22
monetary,C1,air_source_hp,100.0
monetary,C1,car_ev,0.0
monetary,C1,car_ice,0.0
monetary,C1,electric_heater,8.0
monetary,C1,ground_source_hp,100.0
monetary,C1,home_v1g_charging,13.46
monetary,C1,home_v2g_charging,13.46
monetary,C1,public_v1g_charging,13.46
monetary,C1,solar_pv,20.0
monetary,C1,store_electricity,7.22
monetary,C10,air_source_hp,100.0
monetary,C10,car_ev,0.0
monetary,C10,car_ice,0.0
monetary,C10,electric_heater,8.0
monetary,C10,ground_source_hp,100.0
monetary,C10,home_v1g_charging,13.46
monetary,C10,home_v2g_charging,13.46
monetary,C10,public_v1g_charging,13.46
monetary,C10,solar_pv,20.0
monetary,C10,store_electricity,7.22
monetary,C11,air_source_hp,100.0
monetary,C11,car_ev,0.0
monetary,C11,car_ice,0.0
monetary,C11,electric_heater,8.0
monetary,C11,ground_source_hp,100.0
monetary,C11,home_v1g_charging,13.46
monetary,C11,home_v2g_charging,13.46
monetary,C11,public_v1g_charging,13.46
monetary,C11,solar_pv,20.0
monetary,C11,store_electricity,7.22
monetary,C12,air_source_hp,100.0
monetary,C12,car_ev,0.0
monetary,C12,car_ice,0.0
monetary,C12,electric_heater,8.0
monetary,C12,ground_source_hp,100.0
monetary,C12,home_v1g_charging,13.46
monetary,C12,home_v2g_charging,13.46
monetary,C12,public_v1g_charging,13.46
monetary,C12,solar_pv,20.0
monetary,C12,store_electricity,7.22
monetary,C2,air_source_hp,100.0
monetary,C2,car_ev,0.0
monetary,C2,car_ice,0.0
monetary,C2,electric_heater,8.0
monetary,C2,ground_source_hp,100.0
monetary,C2,home_v1g_charging,13.46
monetary,C2,home_v2g_charging,13.46
monetary,C2,public_v1g_charging,13.46
monetary,C2,solar_pv,20.0
monetary,C2,store_electricity,7.22
monetary,C3,air_source_hp,100.0
monetary,C3,car_ev,0.0
monetary,C3,car_ice,0.0
monetary,C3,electric_heater,8.0
monetary,C3,ground_source_hp,100.0
monetary,C3,home_v1g_charging,13.46
monetary,C3,home_v2g_charging,13.46
monetary,C3,public_v1g_charging,13.46
monetary,C3,solar_pv,20.0
monetary,C3,store_electricity,7.22
monetary,C4,air_source_hp,100.0
monetary,C4,car_ev,0.0
monetary,C4,car_ice,0.0
monetary,C4,electric_heater,8.0
monetary,C4,ground_source_hp,100.0
monetary,C4,home_v1g_charging,13.46
monetary,C4,home_v2g_charging,13.46
monetary,C4,public_v1g_charging,13.46
monetary,C4,solar_pv,20.0
monetary,C4,store_electricity,7.22
monetary,C5,air_source_hp,100.0
monetary,C5,car_ev,0.0
monetary,C5,car_ice,0.0
monetary,C5,electric_heater,8.0
monetary,C5,ground_source_hp,100.0
monetary,C5,home_v1g_charging,13.46
monetary,C5,home_v2g_charging,13.46
monetary,C5,public_v1g_charging,13.46
monetary,C5,solar_pv,20.0
monetary,C5,store_electricity,7.22
monetary,C6,air_source_hp,100.0
monetary,C6,car_ev,0.0
monetary,C6,car_ice,0.0
monetary,C6,electric_heater,8.0
monetary,C6,ground_source_hp,100.0
monetary,C6,home_v1g_charging,13.46
monetary,C6,home_v2g_charging,13.46
monetary,C6,public_v1g_charging,13.46
monetary,C6,solar_pv,20.0
monetary,C6,store_electricity,7.22
monetary,C7,air_source_hp,100.0
monetary,C7,car_ev,0.0
monetary,C7,car_ice,0.0
monetary,C7,electric_heater,8.0
monetary,C7,ground_source_hp,100.0
monetary,C7,home_v1g_charging,13.46
monetary,C7,home_v2g_charging,13.46
monetary,C7,public_v1g_charging,13.46
monetary,C7,solar_pv,20.0
monetary,C7,store_electricity,7.22
monetary,C8,air_source_hp,100.0
monetary,C8,car_ev,0.0
monetary,C8,car_ice,0.0
monetary,C8,electric_heater,8.0
monetary,C8,ground_source_hp,100.0
monetary,C8,home_v1g_charging,13.46
monetary,C8,home_v2g_charging,13.46
monetary,C8,public_v1g_charging,13.46
monetary,C8,solar_pv,20.0
monetary,C8,store_electricity,7.22
monetary,C9,air_source_hp,100.0
monetary,C9,car_ev,0.0
monetary,C9,car_ice,0.0
monetary,C9,electric_heater,8.0
monetary,C9,ground_source_hp,100.0
monetary,C9,home_v1g_charging,13.46
monetary,C9,home_v2g_charging,13.46
monetary,C9,public_v1g_charging,13.46
monetary,C9,solar_pv,20.0
monetary,C9,store_electricity,7.22
