locs,techs,force_resource
A1,demand_cooking,True
A1,demand_electricity,True
A1,demand_space_heat_final,True
A1,demand_transport,True
A1,demand_water_heat,True
A1,solar_pv,True
A1,solar_thermal_vt,True
A2,demand_cooking,True
A2,demand_electricity,True
A2,demand_space_heat_final,True
A2,demand_transport,True
A2,demand_water_heat,True
A2,solar_pv,True
A2,solar_thermal_vt,True
A3,demand_cooking,True
A3,demand_electricity,True
A3,demand_space_heat_final,True
A3,demand_transport,True
A3,demand_water_heat,True
A3,solar_pv,True
A3,solar_thermal_vt,True
A4,demand_cooking,True
A4,demand_electricity,True
A4,demand_space_heat_final,True
A4,demand_transport,True
A4,demand_water_heat,True
A4,solar_pv,True
A4,solar_thermal_vt,True
A5,demand_cooking,True
A5,demand_electricity,True
A5,demand_space_heat_final,True
A5,demand_transport,True
A5,demand_water_heat,True
A5,solar_pv,True
A5,solar_thermal_vt,True
A6,demand_cooking,True
A6,demand_electricity,True
A6,demand_space_heat_final,True
A6,demand_transport,True
A6,demand_water_heat,True
A6,solar_pv,True
A6,solar_thermal_vt,True
A7,demand_cooking,True
A7,demand_electricity,True
A7,demand_space_heat_final,True
A7,demand_transport,True
A7,demand_water_heat,True
A7,solar_pv,True
A7,solar_thermal_vt,True
A8,demand_cooking,True
A8,demand_electricity,True
A8,demand_space_heat_final,True
A8,demand_transport,True
A8,demand_water_heat,True
A8,solar_pv,True
A8,solar_thermal_vt,True
B1,demand_cooking,True
B1,demand_electricity,True
B1,demand_space_heat_final,True
B1,demand_transport,True
B1,demand_water_heat,True
B1,solar_pv,True
B1,solar_thermal_vt,True
B2,demand_cooking,True
B2,demand_electricity,True
B2,demand_space_heat_final,True
B2,demand_transport,True
B2,demand_water_heat,True
B2,solar_pv,True
B2,solar_thermal_vt,True
B3,demand_cooking,True
B3,demand_electricity,True
B3,demand_space_heat_final,True
B3,demand_transport,True
B3,demand_water_heat,True
B3,solar_pv,True
B3,solar_thermal_vt,True
B4,demand_cooking,True
B4,demand_electricity,True
B4,demand_space_heat_final,True
B4,demand_transport,True
B4,demand_water_heat,True
B4,solar_pv,True
B4,solar_thermal_vt,True
B5,demand_cooking,True
B5,demand_electricity,True
B5,demand_space_heat_final,True
B5,demand_transport,True
B5,demand_water_heat,True
B5,solar_pv,True
B5,solar_thermal_vt,True
C1,demand_cooking,True
C1,demand_electricity,True
C1,demand_space_heat_final,True
C1,demand_transport,True
C1,demand_water_heat,True
C1,solar_pv,True
C1,solar_thermal_vt,True
C10,demand_cooking,True
C10,demand_electricity,True
C10,demand_space_heat_final,True
C10,demand_transport,True
C10,demand_water_heat,True
C10,solar_pv,True
C10,solar_thermal_vt,True
C11,demand_cooking,True
C11,demand_electricity,True
C11,demand_space_heat_final,True
C11,demand_transport,True
C11,demand_water_heat,True
C11,solar_pv,True
C11,solar_thermal_vt,True
C12,demand_cooking,True
C12,demand_electricity,True
C12,demand_space_heat_final,True
C12,demand_transport,True
C12,demand_water_heat,True
C12,solar_pv,True
C12,solar_thermal_vt,True
C2,demand_cooking,True
C2,demand_electricity,True
C2,demand_space_heat_final,True
C2,demand_transport,True
C2,demand_water_heat,True
C2,solar_pv,True
C2,solar_thermal_vt,True
C3,demand_cooking,True
C3,demand_electricity,True
C3,demand_space_heat_final,True
C3,demand_transport,True
C3,demand_water_heat,True
C3,solar_pv,True
C3,solar_thermal_vt,True
C4,demand_cooking,True
C4,demand_electricity,True
C4,demand_space_heat_final,True
C4,demand_transport,True
C4,demand_water_heat,True
C4,solar_pv,True
C4,solar_thermal_vt,True
C5,demand_cooking,True
C5,demand_electricity,True
C5,demand_space_heat_final,True
C5,demand_transport,True
C5,demand_water_heat,True
C5,solar_pv,True
C5,solar_thermal_vt,True
C6,demand_cooking,True
C6,demand_electricity,True
C6,demand_space_heat_final,True
C6,demand_transport,True
C6,demand_water_heat,True
C6,solar_pv,True
C6,solar_thermal_vt,True
C7,demand_cooking,True
C7,demand_electricity,True
C7,demand_space_heat_final,True
C7,demand_transport,True
C7,demand_water_heat,True
C7,solar_pv,True
C7,solar_thermal_vt,True
C8,demand_cooking,True
C8,demand_electricity,True
C8,demand_space_heat_final,True
C8,demand_transport,True
C8,demand_water_heat,True
C8,solar_pv,True
C8,solar_thermal_vt,True
C9,demand_cooking,True
C9,demand_electricity,True
C9,demand_space_heat_final,True
C9,demand_transport,True
C9,demand_water_heat,True
C9,solar_pv,True
C9,solar_thermal_vt,True
