locs,techs,lifetime
A1,air_source_hp,12.0
A1,car_ev,10.0
A1,car_ev_battery,10.0
A1,car_ice,10.0
A1,electric_heater,30.0
A1,electric_hob,25.0
A1,gas_boiler,25.0
A1,gas_hob,25.0
A1,ground_source_hp,20.0
A1,heat_storage_building_enhanced,25.0
A1,heat_storage_building_existing,25.0
A1,heat_storage_building_improved,25.0
A1,home_v1g_charging,10.0
A1,home_v2g_charging,10.0
A1,load_shedding,inf
A1,power_lines:EG,1.0
A1,public_v1g_charging,10.0
A1,renovation_enhanced,20.0
A1,renovation_existing,25.0
A1,renovation_improved,20.0
A1,solar_pv,25.0
A1,solar_thermal_vt,25.0
A1,store_electricity,10.0
A1,store_heat,20.0
A1,supply_diesel,25.0
A1,supply_gas,25.0
A2,air_source_hp,12.0
A2,car_ev,10.0
A2,car_ev_battery,10.0
A2,car_ice,10.0
A2,electric_heater,30.0
A2,electric_hob,25.0
A2,gas_boiler,25.0
A2,gas_hob,25.0
A2,ground_source_hp,20.0
A2,heat_storage_building_enhanced,25.0
A2,heat_storage_building_existing,25.0
A2,heat_storage_building_improved,25.0
A2,home_v1g_charging,10.0
A2,home_v2g_charging,10.0
A2,load_shedding,inf
A2,power_lines:EG,1.0
A2,public_v1g_charging,10.0
A2,renovation_enhanced,20.0
A2,renovation_existing,25.0
A2,renovation_improved,20.0
A2,solar_pv,25.0
A2,solar_thermal_vt,25.0
A2,store_electricity,10.0
A2,store_heat,20.0
A2,supply_diesel,25.0
A2,supply_gas,25.0
A3,air_source_hp,12.0
A3,car_ev,10.0
A3,car_ev_battery,10.0
A3,car_ice,10.0
A3,electric_heater,30.0
A3,electric_hob,25.0
A3,gas_boiler,25.0
A3,gas_hob,25.0
A3,ground_source_hp,20.0
A3,heat_storage_building_enhanced,25.0
A3,heat_storage_building_existing,25.0
A3,heat_storage_building_improved,25.0
A3,home_v1g_charging,10.0
A3,home_v2g_charging,10.0
A3,load_shedding,inf
A3,power_lines:EG,1.0
A3,public_v1g_charging,10.0
A3,renovation_enhanced,20.0
A3,renovation_existing,25.0
A3,renovation_improved,20.0
A3,solar_pv,25.0
A3,solar_thermal_vt,25.0
A3,store_electricity,10.0
A3,store_heat,20.0
A3,supply_diesel,25.0
A3,supply_gas,25.0
A4,air_source_hp,12.0
A4,car_ev,10.0
A4,car_ev_battery,10.0
A4,car_ice,10.0
A4,electric_heater,30.0
A4,electric_hob,25.0
A4,gas_boiler,25.0
A4,gas_hob,25.0
A4,ground_source_hp,20.0
A4,heat_storage_building_enhanced,25.0
A4,heat_storage_building_existing,25.0
A4,heat_storage_building_improved,25.0
A4,home_v1g_charging,10.0
A4,home_v2g_charging,10.0
A4,load_shedding,inf
A4,power_lines:EG,1.0
A4,public_v1g_charging,10.0
A4,renovation_enhanced,20.0
A4,renovation_existing,25.0
A4,renovation_improved,20.0
A4,solar_pv,25.0
A4,solar_thermal_vt,25.0
A4,store_electricity,10.0
A4,store_heat,20.0
A4,supply_diesel,25.0
A4,supply_gas,25.0
A5,air_source_hp,12.0
A5,car_ev,10.0
A5,car_ev_battery,10.0
A5,car_ice,10.0
A5,electric_heater,30.0
A5,electric_hob,25.0
A5,gas_boiler,25.0
A5,gas_hob,25.0
A5,ground_source_hp,20.0
A5,heat_storage_building_enhanced,25.0
A5,heat_storage_building_existing,25.0
A5,heat_storage_building_improved,25.0
A5,home_v1g_charging,10.0
A5,home_v2g_charging,10.0
A5,load_shedding,inf
A5,power_lines:EG,1.0
A5,public_v1g_charging,10.0
A5,renovation_enhanced,20.0
A5,renovation_existing,25.0
A5,renovation_improved,20.0
A5,solar_pv,25.0
A5,solar_thermal_vt,25.0
A5,store_electricity,10.0
A5,store_heat,20.0
A5,supply_diesel,25.0
A5,supply_gas,25.0
A6,air_source_hp,12.0
A6,car_ev,10.0
A6,car_ev_battery,10.0
A6,car_ice,10.0
A6,electric_heater,30.0
A6,electric_hob,25.0
A6,gas_boiler,25.0
A6,gas_hob,25.0
A6,ground_source_hp,20.0
A6,heat_storage_building_enhanced,25.0
A6,heat_storage_building_existing,25.0
A6,heat_storage_building_improved,25.0
A6,home_v1g_charging,10.0
A6,home_v2g_charging,10.0
A6,load_shedding,inf
A6,power_lines:EG,1.0
A6,public_v1g_charging,10.0
A6,renovation_enhanced,20.0
A6,renovation_existing,25.0
A6,renovation_improved,20.0
A6,solar_pv,25.0
A6,solar_thermal_vt,25.0
A6,store_electricity,10.0
A6,store_heat,20.0
A6,supply_diesel,25.0
A6,supply_gas,25.0
A7,air_source_hp,12.0
A7,car_ev,10.0
A7,car_ev_battery,10.0
A7,car_ice,10.0
A7,electric_heater,30.0
A7,electric_hob,25.0
A7,gas_boiler,25.0
A7,gas_hob,25.0
A7,ground_source_hp,20.0
A7,heat_storage_building_enhanced,25.0
A7,heat_storage_building_existing,25.0
A7,heat_storage_building_improved,25.0
A7,home_v1g_charging,10.0
A7,home_v2g_charging,10.0
A7,load_shedding,inf
A7,power_lines:EG,1.0
A7,public_v1g_charging,10.0
A7,renovation_enhanced,20.0
A7,renovation_existing,25.0
A7,renovation_improved,20.0
A7,solar_pv,25.0
A7,solar_thermal_vt,25.0
A7,store_electricity,10.0
A7,store_heat,20.0
A7,supply_diesel,25.0
A7,supply_gas,25.0
A8,air_source_hp,12.0
A8,car_ev,10.0
A8,car_ev_battery,10.0
A8,car_ice,10.0
A8,electric_heater,30.0
A8,electric_hob,25.0
A8,gas_boiler,25.0
A8,gas_hob,25.0
A8,ground_source_hp,20.0
A8,heat_storage_building_enhanced,25.0
A8,heat_storage_building_existing,25.0
A8,heat_storage_building_improved,25.0
A8,home_v1g_charging,10.0
A8,home_v2g_charging,10.0
A8,load_shedding,inf
A8,power_lines:EG,1.0
A8,public_v1g_charging,10.0
A8,renovation_enhanced,20.0
A8,renovation_existing,25.0
A8,renovation_improved,20.0
A8,solar_pv,25.0
A8,solar_thermal_vt,25.0
A8,store_electricity,10.0
A8,store_heat,20.0
A8,supply_diesel,25.0
A8,supply_gas,25.0
B1,air_source_hp,12.0
B1,car_ev,10.0
B1,car_ev_battery,10.0
B1,car_ice,10.0
B1,electric_heater,30.0
B1,electric_hob,25.0
B1,gas_boiler,25.0
B1,gas_hob,25.0
B1,ground_source_hp,20.0
B1,heat_storage_building_enhanced,25.0
B1,heat_storage_building_existing,25.0
B1,heat_storage_building_improved,25.0
B1,home_v1g_charging,10.0
B1,home_v2g_charging,10.0
B1,load_shedding,inf
B1,power_lines:EG,1.0
B1,public_v1g_charging,10.0
B1,renovation_enhanced,20.0
B1,renovation_existing,25.0
B1,renovation_improved,20.0
B1,solar_pv,25.0
B1,solar_thermal_vt,25.0
B1,store_electricity,10.0
B1,store_heat,20.0
B1,supply_diesel,25.0
B1,supply_gas,25.0
B2,air_source_hp,12.0
B2,car_ev,10.0
B2,car_ev_battery,10.0
B2,car_ice,10.0
B2,electric_heater,30.0
B2,electric_hob,25.0
B2,gas_boiler,25.0
B2,gas_hob,25.0
B2,ground_source_hp,20.0
B2,heat_storage_building_enhanced,25.0
B2,heat_storage_building_existing,25.0
B2,heat_storage_building_improved,25.0
B2,home_v1g_charging,10.0
B2,home_v2g_charging,10.0
B2,load_shedding,inf
B2,power_lines:EG,1.0
B2,public_v1g_charging,10.0
B2,renovation_enhanced,20.0
B2,renovation_existing,25.0
B2,renovation_improved,20.0
B2,solar_pv,25.0
B2,solar_thermal_vt,25.0
B2,store_electricity,10.0
B2,store_heat,20.0
B2,supply_diesel,25.0
B2,supply_gas,25.0
B3,air_source_hp,12.0
B3,car_ev,10.0
B3,car_ev_battery,10.0
B3,car_ice,10.0
B3,electric_heater,30.0
B3,electric_hob,25.0
B3,gas_boiler,25.0
B3,gas_hob,25.0
B3,ground_source_hp,20.0
B3,heat_storage_building_enhanced,25.0
B3,heat_storage_building_existing,25.0
B3,heat_storage_building_improved,25.0
B3,home_v1g_charging,10.0
B3,home_v2g_charging,10.0
B3,load_shedding,inf
B3,power_lines:EG,1.0
B3,public_v1g_charging,10.0
B3,renovation_enhanced,20.0
B3,renovation_existing,25.0
B3,renovation_improved,20.0
B3,solar_pv,25.0
B3,solar_thermal_vt,25.0
B3,store_electricity,10.0
B3,store_heat,20.0
B3,supply_diesel,25.0
B3,supply_gas,25.0
B4,air_source_hp,12.0
B4,car_ev,10.0
B4,car_ev_battery,10.0
B4,car_ice,10.0
B4,electric_heater,30.0
B4,electric_hob,25.0
B4,gas_boiler,25.0
B4,gas_hob,25.0
B4,ground_source_hp,20.0
B4,heat_storage_building_enhanced,25.0
B4,heat_storage_building_existing,25.0
B4,heat_storage_building_improved,25.0
B4,home_v1g_charging,10.0
B4,home_v2g_charging,10.0
B4,load_shedding,inf
B4,power_lines:EG,1.0
B4,public_v1g_charging,10.0
B4,renovation_enhanced,20.0
B4,renovation_existing,25.0
B4,renovation_improved,20.0
B4,solar_pv,25.0
B4,solar_thermal_vt,25.0
B4,store_electricity,10.0
B4,store_heat,20.0
B4,supply_diesel,25.0
B4,supply_gas,25.0
B5,air_source_hp,12.0
B5,car_ev,10.0
B5,car_ev_battery,10.0
B5,car_ice,10.0
B5,electric_heater,30.0
B5,electric_hob,25.0
B5,gas_boiler,25.0
B5,gas_hob,25.0
B5,ground_source_hp,20.0
B5,heat_storage_building_enhanced,25.0
B5,heat_storage_building_existing,25.0
B5,heat_storage_building_improved,25.0
B5,home_v1g_charging,10.0
B5,home_v2g_charging,10.0
B5,load_shedding,inf
B5,power_lines:EG,1.0
B5,public_v1g_charging,10.0
B5,renovation_enhanced,20.0
B5,renovation_existing,25.0
B5,renovation_improved,20.0
B5,solar_pv,25.0
B5,solar_thermal_vt,25.0
B5,store_electricity,10.0
B5,store_heat,20.0
B5,supply_diesel,25.0
B5,supply_gas,25.0
C1,air_source_hp,12.0
C1,car_ev,10.0
C1,car_ev_battery,10.0
C1,car_ice,10.0
C1,electric_heater,30.0
C1,electric_hob,25.0
C1,gas_boiler,25.0
C1,gas_hob,25.0
C1,ground_source_hp,20.0
C1,heat_storage_building_enhanced,25.0
C1,heat_storage_building_existing,25.0
C1,heat_storage_building_improved,25.0
C1,home_v1g_charging,10.0
C1,home_v2g_charging,10.0
C1,load_shedding,inf
C1,power_lines:EG,1.0
C1,public_v1g_charging,10.0
C1,renovation_enhanced,20.0
C1,renovation_existing,25.0
C1,renovation_improved,20.0
C1,solar_pv,25.0
C1,solar_thermal_vt,25.0
C1,store_electricity,10.0
C1,store_heat,20.0
C1,supply_diesel,25.0
C1,supply_gas,25.0
C10,air_source_hp,12.0
C10,car_ev,10.0
C10,car_ev_battery,10.0
C10,car_ice,10.0
C10,electric_heater,30.0
C10,electric_hob,25.0
C10,gas_boiler,25.0
C10,gas_hob,25.0
C10,ground_source_hp,20.0
C10,heat_storage_building_enhanced,25.0
C10,heat_storage_building_existing,25.0
C10,heat_storage_building_improved,25.0
C10,home_v1g_charging,10.0
C10,home_v2g_charging,10.0
C10,load_shedding,inf
C10,power_lines:EG,1.0
C10,public_v1g_charging,10.0
C10,renovation_enhanced,20.0
C10,renovation_existing,25.0
C10,renovation_improved,20.0
C10,solar_pv,25.0
C10,solar_thermal_vt,25.0
C10,store_electricity,10.0
C10,store_heat,20.0
C10,supply_diesel,25.0
C10,supply_gas,25.0
C11,air_source_hp,12.0
C11,car_ev,10.0
C11,car_ev_battery,10.0
C11,car_ice,10.0
C11,electric_heater,30.0
C11,electric_hob,25.0
C11,gas_boiler,25.0
C11,gas_hob,25.0
C11,ground_source_hp,20.0
C11,heat_storage_building_enhanced,25.0
C11,heat_storage_building_existing,25.0
C11,heat_storage_building_improved,25.0
C11,home_v1g_charging,10.0
C11,home_v2g_charging,10.0
C11,load_shedding,inf
C11,power_lines:EG,1.0
C11,public_v1g_charging,10.0
C11,renovation_enhanced,20.0
C11,renovation_existing,25.0
C11,renovation_improved,20.0
C11,solar_pv,25.0
C11,solar_thermal_vt,25.0
C11,store_electricity,10.0
C11,store_heat,20.0
C11,supply_diesel,25.0
C11,supply_gas,25.0
C12,air_source_hp,12.0
C12,car_ev,10.0
C12,car_ev_battery,10.0
C12,car_ice,10.0
C12,electric_heater,30.0
C12,electric_hob,25.0
C12,gas_boiler,25.0
C12,gas_hob,25.0
C12,ground_source_hp,20.0
C12,heat_storage_building_enhanced,25.0
C12,heat_storage_building_existing,25.0
C12,heat_storage_building_improved,25.0
C12,home_v1g_charging,10.0
C12,home_v2g_charging,10.0
C12,load_shedding,inf
C12,power_lines:EG,1.0
C12,public_v1g_charging,10.0
C12,renovation_enhanced,20.0
C12,renovation_existing,25.0
C12,renovation_improved,20.0
C12,solar_pv,25.0
C12,solar_thermal_vt,25.0
C12,store_electricity,10.0
C12,store_heat,20.0
C12,supply_diesel,25.0
C12,supply_gas,25.0
C2,air_source_hp,12.0
C2,car_ev,10.0
C2,car_ev_battery,10.0
C2,car_ice,10.0
C2,electric_heater,30.0
C2,electric_hob,25.0
C2,gas_boiler,25.0
C2,gas_hob,25.0
C2,ground_source_hp,20.0
C2,heat_storage_building_enhanced,25.0
C2,heat_storage_building_existing,25.0
C2,heat_storage_building_improved,25.0
C2,home_v1g_charging,10.0
C2,home_v2g_charging,10.0
C2,load_shedding,inf
C2,power_lines:EG,1.0
C2,public_v1g_charging,10.0
C2,renovation_enhanced,20.0
C2,renovation_existing,25.0
C2,renovation_improved,20.0
C2,solar_pv,25.0
C2,solar_thermal_vt,25.0
C2,store_electricity,10.0
C2,store_heat,20.0
C2,supply_diesel,25.0
C2,supply_gas,25.0
C3,air_source_hp,12.0
C3,car_ev,10.0
C3,car_ev_battery,10.0
C3,car_ice,10.0
C3,electric_heater,30.0
C3,electric_hob,25.0
C3,gas_boiler,25.0
C3,gas_hob,25.0
C3,ground_source_hp,20.0
C3,heat_storage_building_enhanced,25.0
C3,heat_storage_building_existing,25.0
C3,heat_storage_building_improved,25.0
C3,home_v1g_charging,10.0
C3,home_v2g_charging,10.0
C3,load_shedding,inf
C3,power_lines:EG,1.0
C3,public_v1g_charging,10.0
C3,renovation_enhanced,20.0
C3,renovation_existing,25.0
C3,renovation_improved,20.0
C3,solar_pv,25.0
C3,solar_thermal_vt,25.0
C3,store_electricity,10.0
C3,store_heat,20.0
C3,supply_diesel,25.0
C3,supply_gas,25.0
C4,air_source_hp,12.0
C4,car_ev,10.0
C4,car_ev_battery,10.0
C4,car_ice,10.0
C4,electric_heater,30.0
C4,electric_hob,25.0
C4,gas_boiler,25.0
C4,gas_hob,25.0
C4,ground_source_hp,20.0
C4,heat_storage_building_enhanced,25.0
C4,heat_storage_building_existing,25.0
C4,heat_storage_building_improved,25.0
C4,home_v1g_charging,10.0
C4,home_v2g_charging,10.0
C4,load_shedding,inf
C4,power_lines:EG,1.0
C4,public_v1g_charging,10.0
C4,renovation_enhanced,20.0
C4,renovation_existing,25.0
C4,renovation_improved,20.0
C4,solar_pv,25.0
C4,solar_thermal_vt,25.0
C4,store_electricity,10.0
C4,store_heat,20.0
C4,supply_diesel,25.0
C4,supply_gas,25.0
C5,air_source_hp,12.0
C5,car_ev,10.0
C5,car_ev_battery,10.0
C5,car_ice,10.0
C5,electric_heater,30.0
C5,electric_hob,25.0
C5,gas_boiler,25.0
C5,gas_hob,25.0
C5,ground_source_hp,20.0
C5,heat_storage_building_enhanced,25.0
C5,heat_storage_building_existing,25.0
C5,heat_storage_building_improved,25.0
C5,home_v1g_charging,10.0
C5,home_v2g_charging,10.0
C5,load_shedding,inf
C5,power_lines:EG,1.0
C5,public_v1g_charging,10.0
C5,renovation_enhanced,20.0
C5,renovation_existing,25.0
C5,renovation_improved,20.0
C5,solar_pv,25.0
C5,solar_thermal_vt,25.0
C5,store_electricity,10.0
C5,store_heat,20.0
C5,supply_diesel,25.0
C5,supply_gas,25.0
C6,air_source_hp,12.0
C6,car_ev,10.0
C6,car_ev_battery,10.0
C6,car_ice,10.0
C6,electric_heater,30.0
C6,electric_hob,25.0
C6,gas_boiler,25.0
C6,gas_hob,25.0
C6,ground_source_hp,20.0
C6,heat_storage_building_enhanced,25.0
C6,heat_storage_building_existing,25.0
C6,heat_storage_building_improved,25.0
C6,home_v1g_charging,10.0
C6,home_v2g_charging,10.0
C6,load_shedding,inf
C6,power_lines:EG,1.0
C6,public_v1g_charging,10.0
C6,renovation_enhanced,20.0
C6,renovation_existing,25.0
C6,renovation_improved,20.0
C6,solar_pv,25.0
C6,solar_thermal_vt,25.0
C6,store_electricity,10.0
C6,store_heat,20.0
C6,supply_diesel,25.0
C6,supply_gas,25.0
C7,air_source_hp,12.0
C7,car_ev,10.0
C7,car_ev_battery,10.0
C7,car_ice,10.0
C7,electric_heater,30.0
C7,electric_hob,25.0
C7,gas_boiler,25.0
C7,gas_hob,25.0
C7,ground_source_hp,20.0
C7,heat_storage_building_enhanced,25.0
C7,heat_storage_building_existing,25.0
C7,heat_storage_building_improved,25.0
C7,home_v1g_charging,10.0
C7,home_v2g_charging,10.0
C7,load_shedding,inf
C7,power_lines:EG,1.0
C7,public_v1g_charging,10.0
C7,renovation_enhanced,20.0
C7,renovation_existing,25.0
C7,renovation_improved,20.0
C7,solar_pv,25.0
C7,solar_thermal_vt,25.0
C7,store_electricity,10.0
C7,store_heat,20.0
C7,supply_diesel,25.0
C7,supply_gas,25.0
C8,air_source_hp,12.0
C8,car_ev,10.0
C8,car_ev_battery,10.0
C8,car_ice,10.0
C8,electric_heater,30.0
C8,electric_hob,25.0
C8,gas_boiler,25.0
C8,gas_hob,25.0
C8,ground_source_hp,20.0
C8,heat_storage_building_enhanced,25.0
C8,heat_storage_building_existing,25.0
C8,heat_storage_building_improved,25.0
C8,home_v1g_charging,10.0
C8,home_v2g_charging,10.0
C8,load_shedding,inf
C8,power_lines:EG,1.0
C8,public_v1g_charging,10.0
C8,renovation_enhanced,20.0
C8,renovation_existing,25.0
C8,renovation_improved,20.0
C8,solar_pv,25.0
C8,solar_thermal_vt,25.0
C8,store_electricity,10.0
C8,store_heat,20.0
C8,supply_diesel,25.0
C8,supply_gas,25.0
C9,air_source_hp,12.0
C9,car_ev,10.0
C9,car_ev_battery,10.0
C9,car_ice,10.0
C9,electric_heater,30.0
C9,electric_hob,25.0
C9,gas_boiler,25.0
C9,gas_hob,25.0
C9,ground_source_hp,20.0
C9,heat_storage_building_enhanced,25.0
C9,heat_storage_building_existing,25.0
C9,heat_storage_building_improved,25.0
C9,home_v1g_charging,10.0
C9,home_v2g_charging,10.0
C9,load_shedding,inf
C9,power_lines:EG,1.0
C9,public_v1g_charging,10.0
C9,renovation_enhanced,20.0
C9,renovation_existing,25.0
C9,renovation_improved,20.0
C9,solar_pv,25.0
C9,solar_thermal_vt,25.0
C9,store_electricity,10.0
C9,store_heat,20.0
C9,supply_diesel,25.0
C9,supply_gas,25.0
EG,power_lines:A1,1.0
EG,power_lines:A2,1.0
EG,power_lines:A3,1.0
EG,power_lines:A4,1.0
EG,power_lines:A5,1.0
EG,power_lines:A6,1.0
EG,power_lines:A7,1.0
EG,power_lines:A8,1.0
EG,power_lines:B1,1.0
EG,power_lines:B2,1.0
EG,power_lines:B3,1.0
EG,power_lines:B4,1.0
EG,power_lines:B5,1.0
EG,power_lines:C1,1.0
EG,power_lines:C10,1.0
EG,power_lines:C11,1.0
EG,power_lines:C12,1.0
EG,power_lines:C2,1.0
EG,power_lines:C3,1.0
EG,power_lines:C4,1.0
EG,power_lines:C5,1.0
EG,power_lines:C6,1.0
EG,power_lines:C7,1.0
EG,power_lines:C8,1.0
EG,power_lines:C9,1.0
EG,supply_grid_power,25.0
