carriers,locs,lookup_loc_carriers
cooking,A1,"A1::electric_hob::cooking,A1::gas_hob::cooking,A1::demand_cooking::cooking"
cooking,A2,"A2::demand_cooking::cooking,A2::electric_hob::cooking,A2::gas_hob::cooking"
cooking,A3,"A3::gas_hob::cooking,A3::electric_hob::cooking,A3::demand_cooking::cooking"
cooking,A4,"A4::demand_cooking::cooking,A4::electric_hob::cooking,A4::gas_hob::cooking"
cooking,A5,"A5::gas_hob::cooking,A5::demand_cooking::cooking,A5::electric_hob::cooking"
cooking,A6,"A6::demand_cooking::cooking,A6::gas_hob::cooking,A6::electric_hob::cooking"
cooking,A7,"A7::gas_hob::cooking,A7::electric_hob::cooking,A7::demand_cooking::cooking"
cooking,A8,"A8::gas_hob::cooking,A8::demand_cooking::cooking,A8::electric_hob::cooking"
cooking,B1,"B1::electric_hob::cooking,B1::demand_cooking::cooking,B1::gas_hob::cooking"
cooking,B2,"B2::gas_hob::cooking,B2::electric_hob::cooking,B2::demand_cooking::cooking"
cooking,B3,"B3::demand_cooking::cooking,B3::electric_hob::cooking,B3::gas_hob::cooking"
cooking,B4,"B4::demand_cooking::cooking,B4::electric_hob::cooking,B4::gas_hob::cooking"
cooking,B5,"B5::demand_cooking::cooking,B5::electric_hob::cooking,B5::gas_hob::cooking"
cooking,C1,"C1::demand_cooking::cooking,C1::gas_hob::cooking,C1::electric_hob::cooking"
cooking,C10,"C10::gas_hob::cooking,C10::demand_cooking::cooking,C10::electric_hob::cooking"
cooking,C11,"C11::gas_hob::cooking,C11::demand_cooking::cooking,C11::electric_hob::cooking"
cooking,C12,"C12::demand_cooking::cooking,C12::electric_hob::cooking,C12::gas_hob::cooking"
cooking,C2,"C2::electric_hob::cooking,C2::demand_cooking::cooking,C2::gas_hob::cooking"
cooking,C3,"C3::gas_hob::cooking,C3::electric_hob::cooking,C3::demand_cooking::cooking"
cooking,C4,"C4::gas_hob::cooking,C4::demand_cooking::cooking,C4::electric_hob::cooking"
cooking,C5,"C5::gas_hob::cooking,C5::electric_hob::cooking,C5::demand_cooking::cooking"
cooking,C6,"C6::electric_hob::cooking,C6::gas_hob::cooking,C6::demand_cooking::cooking"
cooking,C7,"C7::electric_hob::cooking,C7::demand_cooking::cooking,C7::gas_hob::cooking"
cooking,C8,"C8::gas_hob::cooking,C8::electric_hob::cooking,C8::demand_cooking::cooking"
cooking,C9,"C9::electric_hob::cooking,C9::gas_hob::cooking,C9::demand_cooking::cooking"
diesel,A1,"A1::supply_diesel::diesel,A1::car_ice::diesel"
diesel,A2,"A2::supply_diesel::diesel,A2::car_ice::diesel"
diesel,A3,"A3::car_ice::diesel,A3::supply_diesel::diesel"
diesel,A4,"A4::car_ice::diesel,A4::supply_diesel::diesel"
diesel,A5,"A5::supply_diesel::diesel,A5::car_ice::diesel"
diesel,A6,"A6::car_ice::diesel,A6::supply_diesel::diesel"
diesel,A7,"A7::car_ice::diesel,A7::supply_diesel::diesel"
diesel,A8,"A8::supply_diesel::diesel,A8::car_ice::diesel"
diesel,B1,"B1::car_ice::diesel,B1::supply_diesel::diesel"
diesel,B2,"B2::car_ice::diesel,B2::supply_diesel::diesel"
diesel,B3,"B3::car_ice::diesel,B3::supply_diesel::diesel"
diesel,B4,"B4::car_ice::diesel,B4::supply_diesel::diesel"
diesel,B5,"B5::car_ice::diesel,B5::supply_diesel::diesel"
diesel,C1,"C1::car_ice::diesel,C1::supply_diesel::diesel"
diesel,C10,"C10::supply_diesel::diesel,C10::car_ice::diesel"
diesel,C11,"C11::car_ice::diesel,C11::supply_diesel::diesel"
diesel,C12,"C12::supply_diesel::diesel,C12::car_ice::diesel"
diesel,C2,"C2::supply_diesel::diesel,C2::car_ice::diesel"
diesel,C3,"C3::car_ice::diesel,C3::supply_diesel::diesel"
diesel,C4,"C4::supply_diesel::diesel,C4::car_ice::diesel"
diesel,C5,"C5::supply_diesel::diesel,C5::car_ice::diesel"
diesel,C6,"C6::supply_diesel::diesel,C6::car_ice::diesel"
diesel,C7,"C7::supply_diesel::diesel,C7::car_ice::diesel"
diesel,C8,"C8::car_ice::diesel,C8::supply_diesel::diesel"
diesel,C9,"C9::car_ice::diesel,C9::supply_diesel::diesel"
electricity,A1,"A1::air_source_hp::electricity,A1::electric_hob::electricity,A1::ground_source_hp::electricity,A1::demand_electricity::electricity,A1::power_lines:EG::electricity,A1::home_v2g_charging::electricity,A1::store_electricity::electricity,A1::electric_heater::electricity,A1::load_shedding::electricity,A1::home_v1g_charging::electricity,A1::solar_pv::electricity"
electricity,A2,"A2::solar_pv::electricity,A2::home_v2g_charging::electricity,A2::demand_electricity::electricity,A2::electric_heater::electricity,A2::ground_source_hp::electricity,A2::home_v1g_charging::electricity,A2::load_shedding::electricity,A2::air_source_hp::electricity,A2::store_electricity::electricity,A2::power_lines:EG::electricity,A2::electric_hob::electricity"
electricity,A3,"A3::home_v1g_charging::electricity,A3::demand_electricity::electricity,A3::load_shedding::electricity,A3::ground_source_hp::electricity,A3::store_electricity::electricity,A3::electric_heater::electricity,A3::solar_pv::electricity,A3::home_v2g_charging::electricity,A3::electric_hob::electricity,A3::air_source_hp::electricity,A3::power_lines:EG::electricity"
electricity,A4,"A4::home_v1g_charging::electricity,A4::demand_electricity::electricity,A4::load_shedding::electricity,A4::power_lines:EG::electricity,A4::solar_pv::electricity,A4::ground_source_hp::electricity,A4::home_v2g_charging::electricity,A4::store_electricity::electricity,A4::electric_hob::electricity,A4::air_source_hp::electricity,A4::electric_heater::electricity"
electricity,A5,"A5::home_v1g_charging::electricity,A5::home_v2g_charging::electricity,A5::ground_source_hp::electricity,A5::electric_heater::electricity,A5::store_electricity::electricity,A5::solar_pv::electricity,A5::power_lines:EG::electricity,A5::demand_electricity::electricity,A5::air_source_hp::electricity,A5::electric_hob::electricity,A5::load_shedding::electricity"
electricity,A6,"A6::air_source_hp::electricity,A6::power_lines:EG::electricity,A6::demand_electricity::electricity,A6::ground_source_hp::electricity,A6::electric_hob::electricity,A6::load_shedding::electricity,A6::electric_heater::electricity,A6::home_v1g_charging::electricity,A6::solar_pv::electricity,A6::store_electricity::electricity,A6::home_v2g_charging::electricity"
electricity,A7,"A7::ground_source_hp::electricity,A7::store_electricity::electricity,A7::power_lines:EG::electricity,A7::demand_electricity::electricity,A7::solar_pv::electricity,A7::home_v2g_charging::electricity,A7::electric_heater::electricity,A7::load_shedding::electricity,A7::home_v1g_charging::electricity,A7::electric_hob::electricity,A7::air_source_hp::electricity"
electricity,A8,"A8::load_shedding::electricity,A8::air_source_hp::electricity,A8::store_electricity::electricity,A8::solar_pv::electricity,A8::demand_electricity::electricity,A8::ground_source_hp::electricity,A8::electric_hob::electricity,A8::home_v1g_charging::electricity,A8::power_lines:EG::electricity,A8::home_v2g_charging::electricity,A8::electric_heater::electricity"
electricity,B1,"B1::electric_heater::electricity,B1::home_v2g_charging::electricity,B1::power_lines:EG::electricity,B1::store_electricity::electricity,B1::load_shedding::electricity,B1::electric_hob::electricity,B1::demand_electricity::electricity,B1::home_v1g_charging::electricity,B1::ground_source_hp::electricity,B1::air_source_hp::electricity,B1::solar_pv::electricity"
electricity,B2,"B2::home_v2g_charging::electricity,B2::store_electricity::electricity,B2::solar_pv::electricity,B2::load_shedding::electricity,B2::home_v1g_charging::electricity,B2::demand_electricity::electricity,B2::power_lines:EG::electricity,B2::electric_hob::electricity,B2::air_source_hp::electricity,B2::ground_source_hp::electricity,B2::electric_heater::electricity"
electricity,B3,"B3::demand_electricity::electricity,B3::home_v1g_charging::electricity,B3::load_shedding::electricity,B3::air_source_hp::electricity,B3::electric_heater::electricity,B3::power_lines:EG::electricity,B3::store_electricity::electricity,B3::solar_pv::electricity,B3::electric_hob::electricity,B3::ground_source_hp::electricity,B3::home_v2g_charging::electricity"
electricity,B4,"B4::load_shedding::electricity,B4::home_v1g_charging::electricity,B4::ground_source_hp::electricity,B4::solar_pv::electricity,B4::store_electricity::electricity,B4::electric_hob::electricity,B4::power_lines:EG::electricity,B4::demand_electricity::electricity,B4::electric_heater::electricity,B4::home_v2g_charging::electricity,B4::air_source_hp::electricity"
electricity,B5,"B5::demand_electricity::electricity,B5::home_v2g_charging::electricity,B5::home_v1g_charging::electricity,B5::power_lines:EG::electricity,B5::solar_pv::electricity,B5::ground_source_hp::electricity,B5::air_source_hp::electricity,B5::store_electricity::electricity,B5::electric_heater::electricity,B5::electric_hob::electricity,B5::load_shedding::electricity"
electricity,C1,"C1::solar_pv::electricity,C1::load_shedding::electricity,C1::electric_hob::electricity,C1::power_lines:EG::electricity,C1::home_v2g_charging::electricity,C1::store_electricity::electricity,C1::air_source_hp::electricity,C1::home_v1g_charging::electricity,C1::ground_source_hp::electricity,C1::electric_heater::electricity,C1::demand_electricity::electricity"
electricity,C10,"C10::electric_heater::electricity,C10::demand_electricity::electricity,C10::home_v2g_charging::electricity,C10::load_shedding::electricity,C10::store_electricity::electricity,C10::ground_source_hp::electricity,C10::home_v1g_charging::electricity,C10::electric_hob::electricity,C10::air_source_hp::electricity,C10::power_lines:EG::electricity,C10::solar_pv::electricity"
electricity,C11,"C11::electric_heater::electricity,C11::home_v2g_charging::electricity,C11::home_v1g_charging::electricity,C11::power_lines:EG::electricity,C11::solar_pv::electricity,C11::store_electricity::electricity,C11::load_shedding::electricity,C11::air_source_hp::electricity,C11::electric_hob::electricity,C11::demand_electricity::electricity,C11::ground_source_hp::electricity"
electricity,C12,"C12::solar_pv::electricity,C12::load_shedding::electricity,C12::store_electricity::electricity,C12::demand_electricity::electricity,C12::power_lines:EG::electricity,C12::electric_hob::electricity,C12::air_source_hp::electricity,C12::home_v1g_charging::electricity,C12::ground_source_hp::electricity,C12::electric_heater::electricity,C12::home_v2g_charging::electricity"
electricity,C2,"C2::store_electricity::electricity,C2::electric_heater::electricity,C2::load_shedding::electricity,C2::demand_electricity::electricity,C2::air_source_hp::electricity,C2::electric_hob::electricity,C2::home_v2g_charging::electricity,C2::solar_pv::electricity,C2::power_lines:EG::electricity,C2::ground_source_hp::electricity,C2::home_v1g_charging::electricity"
electricity,C3,"C3::ground_source_hp::electricity,C3::home_v2g_charging::electricity,C3::electric_heater::electricity,C3::air_source_hp::electricity,C3::home_v1g_charging::electricity,C3::power_lines:EG::electricity,C3::store_electricity::electricity,C3::solar_pv::electricity,C3::electric_hob::electricity,C3::demand_electricity::electricity,C3::load_shedding::electricity"
electricity,C4,"C4::electric_hob::electricity,C4::store_electricity::electricity,C4::demand_electricity::electricity,C4::ground_source_hp::electricity,C4::solar_pv::electricity,C4::home_v1g_charging::electricity,C4::home_v2g_charging::electricity,C4::electric_heater::electricity,C4::air_source_hp::electricity,C4::load_shedding::electricity,C4::power_lines:EG::electricity"
electricity,C5,"C5::demand_electricity::electricity,C5::electric_heater::electricity,C5::electric_hob::electricity,C5::home_v2g_charging::electricity,C5::air_source_hp::electricity,C5::store_electricity::electricity,C5::power_lines:EG::electricity,C5::load_shedding::electricity,C5::ground_source_hp::electricity,C5::solar_pv::electricity,C5::home_v1g_charging::electricity"
electricity,C6,"C6::power_lines:EG::electricity,C6::electric_hob::electricity,C6::solar_pv::electricity,C6::air_source_hp::electricity,C6::home_v2g_charging::electricity,C6::demand_electricity::electricity,C6::electric_heater::electricity,C6::ground_source_hp::electricity,C6::store_electricity::electricity,C6::home_v1g_charging::electricity,C6::load_shedding::electricity"
electricity,C7,"C7::power_lines:EG::electricity,C7::home_v1g_charging::electricity,C7::electric_heater::electricity,C7::demand_electricity::electricity,C7::solar_pv::electricity,C7::store_electricity::electricity,C7::air_source_hp::electricity,C7::electric_hob::electricity,C7::ground_source_hp::electricity,C7::home_v2g_charging::electricity,C7::load_shedding::electricity"
electricity,C8,"C8::demand_electricity::electricity,C8::solar_pv::electricity,C8::air_source_hp::electricity,C8::ground_source_hp::electricity,C8::electric_hob::electricity,C8::store_electricity::electricity,C8::power_lines:EG::electricity,C8::load_shedding::electricity,C8::home_v2g_charging::electricity,C8::home_v1g_charging::electricity,C8::electric_heater::electricity"
electricity,C9,"C9::solar_pv::electricity,C9::home_v2g_charging::electricity,C9::air_source_hp::electricity,C9::ground_source_hp::electricity,C9::electric_heater::electricity,C9::power_lines:EG::electricity,C9::store_electricity::electricity,C9::demand_electricity::electricity,C9::home_v1g_charging::electricity,C9::load_shedding::electricity,C9::electric_hob::electricity"
electricity,EG,"EG::power_lines:A6::electricity,EG::power_lines:C7::electricity,EG::power_lines:A1::electricity,EG::power_lines:C2::electricity,EG::power_lines:C12::electricity,EG::power_lines:C5::electricity,EG::power_lines:B5::electricity,EG::power_lines:A5::electricity,EG::supply_grid_power::electricity,EG::power_lines:A2::electricity,EG::power_lines:C8::electricity,EG::power_lines:B2::electricity,EG::power_lines:B3::electricity,EG::power_lines:C11::electricity,EG::power_lines:C4::electricity,EG::power_lines:C3::electricity,EG::power_lines:A7::electricity,EG::power_lines:C6::electricity,EG::power_lines:A4::electricity,EG::power_lines:B1::electricity,EG::power_lines:A8::electricity,EG::power_lines:B4::electricity,EG::power_lines:A3::electricity,EG::power_lines:C10::electricity,EG::power_lines:C1::electricity,EG::power_lines:C9::electricity"
eletricity,A1,A1::public_v1g_charging::eletricity
eletricity,A2,A2::public_v1g_charging::eletricity
eletricity,A3,A3::public_v1g_charging::eletricity
eletricity,A4,A4::public_v1g_charging::eletricity
eletricity,A5,A5::public_v1g_charging::eletricity
eletricity,A6,A6::public_v1g_charging::eletricity
eletricity,A7,A7::public_v1g_charging::eletricity
eletricity,A8,A8::public_v1g_charging::eletricity
eletricity,B1,B1::public_v1g_charging::eletricity
eletricity,B2,B2::public_v1g_charging::eletricity
eletricity,B3,B3::public_v1g_charging::eletricity
eletricity,B4,B4::public_v1g_charging::eletricity
eletricity,B5,B5::public_v1g_charging::eletricity
eletricity,C1,C1::public_v1g_charging::eletricity
eletricity,C10,C10::public_v1g_charging::eletricity
eletricity,C11,C11::public_v1g_charging::eletricity
eletricity,C12,C12::public_v1g_charging::eletricity
eletricity,C2,C2::public_v1g_charging::eletricity
eletricity,C3,C3::public_v1g_charging::eletricity
eletricity,C4,C4::public_v1g_charging::eletricity
eletricity,C5,C5::public_v1g_charging::eletricity
eletricity,C6,C6::public_v1g_charging::eletricity
eletricity,C7,C7::public_v1g_charging::eletricity
eletricity,C8,C8::public_v1g_charging::eletricity
eletricity,C9,C9::public_v1g_charging::eletricity
ev_electricity,A1,"A1::car_ev_battery::ev_electricity,A1::car_ev::ev_electricity"
ev_electricity,A2,"A2::car_ev::ev_electricity,A2::car_ev_battery::ev_electricity"
ev_electricity,A3,"A3::car_ev_battery::ev_electricity,A3::car_ev::ev_electricity"
ev_electricity,A4,"A4::car_ev_battery::ev_electricity,A4::car_ev::ev_electricity"
ev_electricity,A5,"A5::car_ev_battery::ev_electricity,A5::car_ev::ev_electricity"
ev_electricity,A6,"A6::car_ev_battery::ev_electricity,A6::car_ev::ev_electricity"
ev_electricity,A7,"A7::car_ev_battery::ev_electricity,A7::car_ev::ev_electricity"
ev_electricity,A8,"A8::car_ev::ev_electricity,A8::car_ev_battery::ev_electricity"
ev_electricity,B1,"B1::car_ev_battery::ev_electricity,B1::car_ev::ev_electricity"
ev_electricity,B2,"B2::car_ev::ev_electricity,B2::car_ev_battery::ev_electricity"
ev_electricity,B3,"B3::car_ev_battery::ev_electricity,B3::car_ev::ev_electricity"
ev_electricity,B4,"B4::car_ev::ev_electricity,B4::car_ev_battery::ev_electricity"
ev_electricity,B5,"B5::car_ev::ev_electricity,B5::car_ev_battery::ev_electricity"
ev_electricity,C1,"C1::car_ev::ev_electricity,C1::car_ev_battery::ev_electricity"
ev_electricity,C10,"C10::car_ev_battery::ev_electricity,C10::car_ev::ev_electricity"
ev_electricity,C11,"C11::car_ev::ev_electricity,C11::car_ev_battery::ev_electricity"
ev_electricity,C12,"C12::car_ev::ev_electricity,C12::car_ev_battery::ev_electricity"
ev_electricity,C2,"C2::car_ev::ev_electricity,C2::car_ev_battery::ev_electricity"
ev_electricity,C3,"C3::car_ev_battery::ev_electricity,C3::car_ev::ev_electricity"
ev_electricity,C4,"C4::car_ev_battery::ev_electricity,C4::car_ev::ev_electricity"
ev_electricity,C5,"C5::car_ev::ev_electricity,C5::car_ev_battery::ev_electricity"
ev_electricity,C6,"C6::car_ev_battery::ev_electricity,C6::car_ev::ev_electricity"
ev_electricity,C7,"C7::car_ev_battery::ev_electricity,C7::car_ev::ev_electricity"
ev_electricity,C8,"C8::car_ev_battery::ev_electricity,C8::car_ev::ev_electricity"
ev_electricity,C9,"C9::car_ev_battery::ev_electricity,C9::car_ev::ev_electricity"
gas,A1,"A1::gas_boiler::gas,A1::gas_hob::gas,A1::supply_gas::gas"
gas,A2,"A2::supply_gas::gas,A2::gas_boiler::gas,A2::gas_hob::gas"
gas,A3,"A3::gas_hob::gas,A3::gas_boiler::gas,A3::supply_gas::gas"
gas,A4,"A4::supply_gas::gas,A4::gas_boiler::gas,A4::gas_hob::gas"
gas,A5,"A5::gas_boiler::gas,A5::supply_gas::gas,A5::gas_hob::gas"
gas,A6,"A6::supply_gas::gas,A6::gas_hob::gas,A6::gas_boiler::gas"
gas,A7,"A7::supply_gas::gas,A7::gas_hob::gas,A7::gas_boiler::gas"
gas,A8,"A8::supply_gas::gas,A8::gas_boiler::gas,A8::gas_hob::gas"
gas,B1,"B1::supply_gas::gas,B1::gas_boiler::gas,B1::gas_hob::gas"
gas,B2,"B2::gas_boiler::gas,B2::gas_hob::gas,B2::supply_gas::gas"
gas,B3,"B3::gas_boiler::gas,B3::supply_gas::gas,B3::gas_hob::gas"
gas,B4,"B4::gas_boiler::gas,B4::gas_hob::gas,B4::supply_gas::gas"
gas,B5,"B5::supply_gas::gas,B5::gas_hob::gas,B5::gas_boiler::gas"
gas,C1,"C1::supply_gas::gas,C1::gas_hob::gas,C1::gas_boiler::gas"
gas,C10,"C10::gas_hob::gas,C10::gas_boiler::gas,C10::supply_gas::gas"
gas,C11,"C11::gas_hob::gas,C11::supply_gas::gas,C11::gas_boiler::gas"
gas,C12,"C12::gas_boiler::gas,C12::supply_gas::gas,C12::gas_hob::gas"
gas,C2,"C2::gas_boiler::gas,C2::supply_gas::gas,C2::gas_hob::gas"
gas,C3,"C3::supply_gas::gas,C3::gas_hob::gas,C3::gas_boiler::gas"
gas,C4,"C4::supply_gas::gas,C4::gas_hob::gas,C4::gas_boiler::gas"
gas,C5,"C5::gas_hob::gas,C5::gas_boiler::gas,C5::supply_gas::gas"
gas,C6,"C6::gas_boiler::gas,C6::gas_hob::gas,C6::supply_gas::gas"
gas,C7,"C7::supply_gas::gas,C7::gas_boiler::gas,C7::gas_hob::gas"
gas,C8,"C8::gas_boiler::gas,C8::gas_hob::gas,C8::supply_gas::gas"
gas,C9,"C9::gas_hob::gas,C9::gas_boiler::gas,C9::supply_gas::gas"
passenger_car_electricity,A1,"A1::home_v2g_charging::passenger_car_electricity,A1::public_v1g_charging::passenger_car_electricity,A1::home_v1g_charging::passenger_car_electricity"
passenger_car_electricity,A2,"A2::home_v1g_charging::passenger_car_electricity,A2::public_v1g_charging::passenger_car_electricity,A2::home_v2g_charging::passenger_car_electricity"
passenger_car_electricity,A3,"A3::home_v2g_charging::passenger_car_electricity,A3::home_v1g_charging::passenger_car_electricity,A3::public_v1g_charging::passenger_car_electricity"
passenger_car_electricity,A4,"A4::home_v1g_charging::passenger_car_electricity,A4::public_v1g_charging::passenger_car_electricity,A4::home_v2g_charging::passenger_car_electricity"
passenger_car_electricity,A5,"A5::home_v1g_charging::passenger_car_electricity,A5::public_v1g_charging::passenger_car_electricity,A5::home_v2g_charging::passenger_car_electricity"
passenger_car_electricity,A6,"A6::home_v2g_charging::passenger_car_electricity,A6::public_v1g_charging::passenger_car_electricity,A6::home_v1g_charging::passenger_car_electricity"
passenger_car_electricity,A7,"A7::home_v1g_charging::passenger_car_electricity,A7::home_v2g_charging::passenger_car_electricity,A7::public_v1g_charging::passenger_car_electricity"
passenger_car_electricity,A8,"A8::home_v2g_charging::passenger_car_electricity,A8::public_v1g_charging::passenger_car_electricity,A8::home_v1g_charging::passenger_car_electricity"
passenger_car_electricity,B1,"B1::home_v2g_charging::passenger_car_electricity,B1::public_v1g_charging::passenger_car_electricity,B1::home_v1g_charging::passenger_car_electricity"
passenger_car_electricity,B2,"B2::home_v2g_charging::passenger_car_electricity,B2::home_v1g_charging::passenger_car_electricity,B2::public_v1g_charging::passenger_car_electricity"
passenger_car_electricity,B3,"B3::home_v2g_charging::passenger_car_electricity,B3::home_v1g_charging::passenger_car_electricity,B3::public_v1g_charging::passenger_car_electricity"
passenger_car_electricity,B4,"B4::public_v1g_charging::passenger_car_electricity,B4::home_v2g_charging::passenger_car_electricity,B4::home_v1g_charging::passenger_car_electricity"
passenger_car_electricity,B5,"B5::home_v1g_charging::passenger_car_electricity,B5::public_v1g_charging::passenger_car_electricity,B5::home_v2g_charging::passenger_car_electricity"
passenger_car_electricity,C1,"C1::home_v1g_charging::passenger_car_electricity,C1::public_v1g_charging::passenger_car_electricity,C1::home_v2g_charging::passenger_car_electricity"
passenger_car_electricity,C10,"C10::home_v2g_charging::passenger_car_electricity,C10::public_v1g_charging::passenger_car_electricity,C10::home_v1g_charging::passenger_car_electricity"
passenger_car_electricity,C11,"C11::public_v1g_charging::passenger_car_electricity,C11::home_v2g_charging::passenger_car_electricity,C11::home_v1g_charging::passenger_car_electricity"
passenger_car_electricity,C12,"C12::home_v2g_charging::passenger_car_electricity,C12::public_v1g_charging::passenger_car_electricity,C12::home_v1g_charging::passenger_car_electricity"
passenger_car_electricity,C2,"C2::public_v1g_charging::passenger_car_electricity,C2::home_v1g_charging::passenger_car_electricity,C2::home_v2g_charging::passenger_car_electricity"
passenger_car_electricity,C3,"C3::home_v2g_charging::passenger_car_electricity,C3::public_v1g_charging::passenger_car_electricity,C3::home_v1g_charging::passenger_car_electricity"
passenger_car_electricity,C4,"C4::public_v1g_charging::passenger_car_electricity,C4::home_v1g_charging::passenger_car_electricity,C4::home_v2g_charging::passenger_car_electricity"
passenger_car_electricity,C5,"C5::public_v1g_charging::passenger_car_electricity,C5::home_v2g_charging::passenger_car_electricity,C5::home_v1g_charging::passenger_car_electricity"
passenger_car_electricity,C6,"C6::home_v1g_charging::passenger_car_electricity,C6::home_v2g_charging::passenger_car_electricity,C6::public_v1g_charging::passenger_car_electricity"
passenger_car_electricity,C7,"C7::home_v2g_charging::passenger_car_electricity,C7::public_v1g_charging::passenger_car_electricity,C7::home_v1g_charging::passenger_car_electricity"
passenger_car_electricity,C8,"C8::public_v1g_charging::passenger_car_electricity,C8::home_v2g_charging::passenger_car_electricity,C8::home_v1g_charging::passenger_car_electricity"
passenger_car_electricity,C9,"C9::home_v1g_charging::passenger_car_electricity,C9::home_v2g_charging::passenger_car_electricity,C9::public_v1g_charging::passenger_car_electricity"
space_heat,A1,"A1::heat_storage_building_existing::space_heat,A1::gas_boiler::space_heat,A1::renovation_existing::space_heat,A1::store_heat::space_heat,A1::renovation_enhanced::space_heat,A1::electric_heater::space_heat,A1::renovation_improved::space_heat,A1::ground_source_hp::space_heat,A1::air_source_hp::space_heat,A1::heat_storage_building_improved::space_heat,A1::heat_storage_building_enhanced::space_heat"
space_heat,A2,"A2::heat_storage_building_improved::space_heat,A2::heat_storage_building_enhanced::space_heat,A2::store_heat::space_heat,A2::ground_source_hp::space_heat,A2::air_source_hp::space_heat,A2::gas_boiler::space_heat,A2::renovation_existing::space_heat,A2::renovation_improved::space_heat,A2::electric_heater::space_heat,A2::heat_storage_building_existing::space_heat,A2::renovation_enhanced::space_heat"
space_heat,A3,"A3::ground_source_hp::space_heat,A3::air_source_hp::space_heat,A3::gas_boiler::space_heat,A3::heat_storage_building_enhanced::space_heat,A3::electric_heater::space_heat,A3::renovation_existing::space_heat,A3::store_heat::space_heat,A3::heat_storage_building_existing::space_heat,A3::heat_storage_building_improved::space_heat,A3::renovation_enhanced::space_heat,A3::renovation_improved::space_heat"
space_heat,A4,"A4::heat_storage_building_existing::space_heat,A4::gas_boiler::space_heat,A4::ground_source_hp::space_heat,A4::store_heat::space_heat,A4::renovation_existing::space_heat,A4::renovation_enhanced::space_heat,A4::air_source_hp::space_heat,A4::renovation_improved::space_heat,A4::electric_heater::space_heat,A4::heat_storage_building_improved::space_heat,A4::heat_storage_building_enhanced::space_heat"
space_heat,A5,"A5::renovation_existing::space_heat,A5::renovation_enhanced::space_heat,A5::electric_heater::space_heat,A5::heat_storage_building_existing::space_heat,A5::gas_boiler::space_heat,A5::heat_storage_building_enhanced::space_heat,A5::store_heat::space_heat,A5::renovation_improved::space_heat,A5::heat_storage_building_improved::space_heat,A5::ground_source_hp::space_heat,A5::air_source_hp::space_heat"
space_heat,A6,"A6::air_source_hp::space_heat,A6::store_heat::space_heat,A6::renovation_existing::space_heat,A6::renovation_enhanced::space_heat,A6::electric_heater::space_heat,A6::heat_storage_building_existing::space_heat,A6::heat_storage_building_improved::space_heat,A6::ground_source_hp::space_heat,A6::renovation_improved::space_heat,A6::heat_storage_building_enhanced::space_heat,A6::gas_boiler::space_heat"
space_heat,A7,"A7::renovation_improved::space_heat,A7::heat_storage_building_improved::space_heat,A7::heat_storage_building_existing::space_heat,A7::renovation_enhanced::space_heat,A7::heat_storage_building_enhanced::space_heat,A7::air_source_hp::space_heat,A7::renovation_existing::space_heat,A7::electric_heater::space_heat,A7::gas_boiler::space_heat,A7::ground_source_hp::space_heat,A7::store_heat::space_heat"
space_heat,A8,"A8::heat_storage_building_enhanced::space_heat,A8::electric_heater::space_heat,A8::store_heat::space_heat,A8::gas_boiler::space_heat,A8::heat_storage_building_existing::space_heat,A8::renovation_enhanced::space_heat,A8::air_source_hp::space_heat,A8::ground_source_hp::space_heat,A8::renovation_improved::space_heat,A8::renovation_existing::space_heat,A8::heat_storage_building_improved::space_heat"
space_heat,B1,"B1::heat_storage_building_enhanced::space_heat,B1::electric_heater::space_heat,B1::store_heat::space_heat,B1::ground_source_hp::space_heat,B1::air_source_hp::space_heat,B1::renovation_enhanced::space_heat,B1::renovation_improved::space_heat,B1::renovation_existing::space_heat,B1::heat_storage_building_improved::space_heat,B1::gas_boiler::space_heat,B1::heat_storage_building_existing::space_heat"
space_heat,B2,"B2::renovation_enhanced::space_heat,B2::store_heat::space_heat,B2::gas_boiler::space_heat,B2::heat_storage_building_enhanced::space_heat,B2::heat_storage_building_improved::space_heat,B2::electric_heater::space_heat,B2::air_source_hp::space_heat,B2::ground_source_hp::space_heat,B2::renovation_existing::space_heat,B2::renovation_improved::space_heat,B2::heat_storage_building_existing::space_heat"
space_heat,B3,"B3::renovation_enhanced::space_heat,B3::air_source_hp::space_heat,B3::electric_heater::space_heat,B3::heat_storage_building_enhanced::space_heat,B3::heat_storage_building_improved::space_heat,B3::gas_boiler::space_heat,B3::ground_source_hp::space_heat,B3::renovation_improved::space_heat,B3::heat_storage_building_existing::space_heat,B3::store_heat::space_heat,B3::renovation_existing::space_heat"
space_heat,B4,"B4::heat_storage_building_enhanced::space_heat,B4::renovation_existing::space_heat,B4::ground_source_hp::space_heat,B4::store_heat::space_heat,B4::heat_storage_building_existing::space_heat,B4::gas_boiler::space_heat,B4::renovation_improved::space_heat,B4::air_source_hp::space_heat,B4::renovation_enhanced::space_heat,B4::heat_storage_building_improved::space_heat,B4::electric_heater::space_heat"
space_heat,B5,"B5::electric_heater::space_heat,B5::heat_storage_building_existing::space_heat,B5::renovation_enhanced::space_heat,B5::renovation_existing::space_heat,B5::air_source_hp::space_heat,B5::heat_storage_building_enhanced::space_heat,B5::ground_source_hp::space_heat,B5::gas_boiler::space_heat,B5::store_heat::space_heat,B5::renovation_improved::space_heat,B5::heat_storage_building_improved::space_heat"
space_heat,C1,"C1::store_heat::space_heat,C1::electric_heater::space_heat,C1::gas_boiler::space_heat,C1::air_source_hp::space_heat,C1::heat_storage_building_improved::space_heat,C1::renovation_improved::space_heat,C1::renovation_existing::space_heat,C1::renovation_enhanced::space_heat,C1::heat_storage_building_enhanced::space_heat,C1::heat_storage_building_existing::space_heat,C1::ground_source_hp::space_heat"
space_heat,C10,"C10::electric_heater::space_heat,C10::renovation_improved::space_heat,C10::heat_storage_building_improved::space_heat,C10::air_source_hp::space_heat,C10::heat_storage_building_enhanced::space_heat,C10::heat_storage_building_existing::space_heat,C10::renovation_existing::space_heat,C10::ground_source_hp::space_heat,C10::gas_boiler::space_heat,C10::renovation_enhanced::space_heat,C10::store_heat::space_heat"
space_heat,C11,"C11::gas_boiler::space_heat,C11::heat_storage_building_enhanced::space_heat,C11::air_source_hp::space_heat,C11::heat_storage_building_improved::space_heat,C11::renovation_existing::space_heat,C11::electric_heater::space_heat,C11::store_heat::space_heat,C11::renovation_improved::space_heat,C11::ground_source_hp::space_heat,C11::renovation_enhanced::space_heat,C11::heat_storage_building_existing::space_heat"
space_heat,C12,"C12::renovation_enhanced::space_heat,C12::heat_storage_building_improved::space_heat,C12::store_heat::space_heat,C12::heat_storage_building_enhanced::space_heat,C12::gas_boiler::space_heat,C12::air_source_hp::space_heat,C12::renovation_existing::space_heat,C12::heat_storage_building_existing::space_heat,C12::ground_source_hp::space_heat,C12::electric_heater::space_heat,C12::renovation_improved::space_heat"
space_heat,C2,"C2::air_source_hp::space_heat,C2::renovation_enhanced::space_heat,C2::gas_boiler::space_heat,C2::renovation_improved::space_heat,C2::store_heat::space_heat,C2::renovation_existing::space_heat,C2::heat_storage_building_existing::space_heat,C2::ground_source_hp::space_heat,C2::electric_heater::space_heat,C2::heat_storage_building_enhanced::space_heat,C2::heat_storage_building_improved::space_heat"
space_heat,C3,"C3::renovation_enhanced::space_heat,C3::renovation_improved::space_heat,C3::air_source_hp::space_heat,C3::store_heat::space_heat,C3::electric_heater::space_heat,C3::heat_storage_building_improved::space_heat,C3::ground_source_hp::space_heat,C3::heat_storage_building_existing::space_heat,C3::renovation_existing::space_heat,C3::heat_storage_building_enhanced::space_heat,C3::gas_boiler::space_heat"
space_heat,C4,"C4::renovation_existing::space_heat,C4::heat_storage_building_improved::space_heat,C4::ground_source_hp::space_heat,C4::heat_storage_building_existing::space_heat,C4::renovation_enhanced::space_heat,C4::air_source_hp::space_heat,C4::renovation_improved::space_heat,C4::store_heat::space_heat,C4::heat_storage_building_enhanced::space_heat,C4::gas_boiler::space_heat,C4::electric_heater::space_heat"
space_heat,C5,"C5::heat_storage_building_improved::space_heat,C5::heat_storage_building_enhanced::space_heat,C5::ground_source_hp::space_heat,C5::renovation_improved::space_heat,C5::electric_heater::space_heat,C5::air_source_hp::space_heat,C5::gas_boiler::space_heat,C5::store_heat::space_heat,C5::heat_storage_building_existing::space_heat,C5::renovation_existing::space_heat,C5::renovation_enhanced::space_heat"
space_heat,C6,"C6::electric_heater::space_heat,C6::store_heat::space_heat,C6::heat_storage_building_improved::space_heat,C6::renovation_improved::space_heat,C6::heat_storage_building_enhanced::space_heat,C6::renovation_enhanced::space_heat,C6::gas_boiler::space_heat,C6::heat_storage_building_existing::space_heat,C6::air_source_hp::space_heat,C6::renovation_existing::space_heat,C6::ground_source_hp::space_heat"
space_heat,C7,"C7::heat_storage_building_enhanced::space_heat,C7::heat_storage_building_improved::space_heat,C7::heat_storage_building_existing::space_heat,C7::store_heat::space_heat,C7::renovation_enhanced::space_heat,C7::air_source_hp::space_heat,C7::gas_boiler::space_heat,C7::electric_heater::space_heat,C7::renovation_existing::space_heat,C7::ground_source_hp::space_heat,C7::renovation_improved::space_heat"
space_heat,C8,"C8::heat_storage_building_improved::space_heat,C8::renovation_enhanced::space_heat,C8::heat_storage_building_existing::space_heat,C8::heat_storage_building_enhanced::space_heat,C8::renovation_improved::space_heat,C8::ground_source_hp::space_heat,C8::electric_heater::space_heat,C8::air_source_hp::space_heat,C8::gas_boiler::space_heat,C8::renovation_existing::space_heat,C8::store_heat::space_heat"
space_heat,C9,"C9::renovation_enhanced::space_heat,C9::store_heat::space_heat,C9::gas_boiler::space_heat,C9::heat_storage_building_enhanced::space_heat,C9::renovation_existing::space_heat,C9::air_source_hp::space_heat,C9::heat_storage_building_existing::space_heat,C9::electric_heater::space_heat,C9::heat_storage_building_improved::space_heat,C9::renovation_improved::space_heat,C9::ground_source_hp::space_heat"
space_heat_final,A1,"A1::renovation_enhanced::space_heat_final,A1::demand_space_heat_final::space_heat_final,A1::renovation_existing::space_heat_final,A1::renovation_improved::space_heat_final"
space_heat_final,A2,"A2::demand_space_heat_final::space_heat_final,A2::renovation_improved::space_heat_final,A2::renovation_enhanced::space_heat_final,A2::renovation_existing::space_heat_final"
space_heat_final,A3,"A3::renovation_existing::space_heat_final,A3::demand_space_heat_final::space_heat_final,A3::renovation_enhanced::space_heat_final,A3::renovation_improved::space_heat_final"
space_heat_final,A4,"A4::renovation_existing::space_heat_final,A4::renovation_enhanced::space_heat_final,A4::renovation_improved::space_heat_final,A4::demand_space_heat_final::space_heat_final"
space_heat_final,A5,"A5::renovation_existing::space_heat_final,A5::renovation_improved::space_heat_final,A5::demand_space_heat_final::space_heat_final,A5::renovation_enhanced::space_heat_final"
space_heat_final,A6,"A6::renovation_improved::space_heat_final,A6::demand_space_heat_final::space_heat_final,A6::renovation_enhanced::space_heat_final,A6::renovation_existing::space_heat_final"
space_heat_final,A7,"A7::renovation_improved::space_heat_final,A7::renovation_existing::space_heat_final,A7::renovation_enhanced::space_heat_final,A7::demand_space_heat_final::space_heat_final"
space_heat_final,A8,"A8::renovation_enhanced::space_heat_final,A8::renovation_existing::space_heat_final,A8::demand_space_heat_final::space_heat_final,A8::renovation_improved::space_heat_final"
space_heat_final,B1,"B1::demand_space_heat_final::space_heat_final,B1::renovation_existing::space_heat_final,B1::renovation_improved::space_heat_final,B1::renovation_enhanced::space_heat_final"
space_heat_final,B2,"B2::renovation_improved::space_heat_final,B2::demand_space_heat_final::space_heat_final,B2::renovation_enhanced::space_heat_final,B2::renovation_existing::space_heat_final"
space_heat_final,B3,"B3::renovation_existing::space_heat_final,B3::demand_space_heat_final::space_heat_final,B3::renovation_improved::space_heat_final,B3::renovation_enhanced::space_heat_final"
space_heat_final,B4,"B4::renovation_existing::space_heat_final,B4::renovation_enhanced::space_heat_final,B4::renovation_improved::space_heat_final,B4::demand_space_heat_final::space_heat_final"
space_heat_final,B5,"B5::renovation_improved::space_heat_final,B5::renovation_enhanced::space_heat_final,B5::demand_space_heat_final::space_heat_final,B5::renovation_existing::space_heat_final"
space_heat_final,C1,"C1::renovation_improved::space_heat_final,C1::renovation_existing::space_heat_final,C1::renovation_enhanced::space_heat_final,C1::demand_space_heat_final::space_heat_final"
space_heat_final,C10,"C10::renovation_enhanced::space_heat_final,C10::renovation_improved::space_heat_final,C10::demand_space_heat_final::space_heat_final,C10::renovation_existing::space_heat_final"
space_heat_final,C11,"C11::renovation_enhanced::space_heat_final,C11::demand_space_heat_final::space_heat_final,C11::renovation_existing::space_heat_final,C11::renovation_improved::space_heat_final"
space_heat_final,C12,"C12::renovation_improved::space_heat_final,C12::renovation_enhanced::space_heat_final,C12::renovation_existing::space_heat_final,C12::demand_space_heat_final::space_heat_final"
space_heat_final,C2,"C2::renovation_improved::space_heat_final,C2::renovation_existing::space_heat_final,C2::renovation_enhanced::space_heat_final,C2::demand_space_heat_final::space_heat_final"
space_heat_final,C3,"C3::renovation_improved::space_heat_final,C3::demand_space_heat_final::space_heat_final,C3::renovation_enhanced::space_heat_final,C3::renovation_existing::space_heat_final"
space_heat_final,C4,"C4::renovation_enhanced::space_heat_final,C4::demand_space_heat_final::space_heat_final,C4::renovation_existing::space_heat_final,C4::renovation_improved::space_heat_final"
space_heat_final,C5,"C5::renovation_enhanced::space_heat_final,C5::renovation_existing::space_heat_final,C5::demand_space_heat_final::space_heat_final,C5::renovation_improved::space_heat_final"
space_heat_final,C6,"C6::renovation_existing::space_heat_final,C6::demand_space_heat_final::space_heat_final,C6::renovation_enhanced::space_heat_final,C6::renovation_improved::space_heat_final"
space_heat_final,C7,"C7::renovation_improved::space_heat_final,C7::demand_space_heat_final::space_heat_final,C7::renovation_enhanced::space_heat_final,C7::renovation_existing::space_heat_final"
space_heat_final,C8,"C8::demand_space_heat_final::space_heat_final,C8::renovation_enhanced::space_heat_final,C8::renovation_improved::space_heat_final,C8::renovation_existing::space_heat_final"
space_heat_final,C9,"C9::renovation_improved::space_heat_final,C9::renovation_enhanced::space_heat_final,C9::demand_space_heat_final::space_heat_final,C9::renovation_existing::space_heat_final"
transport,A1,"A1::demand_transport::transport,A1::car_ev::transport,A1::car_ice::transport"
transport,A2,"A2::demand_transport::transport,A2::car_ev::transport,A2::car_ice::transport"
transport,A3,"A3::car_ev::transport,A3::demand_transport::transport,A3::car_ice::transport"
transport,A4,"A4::demand_transport::transport,A4::car_ice::transport,A4::car_ev::transport"
transport,A5,"A5::demand_transport::transport,A5::car_ev::transport,A5::car_ice::transport"
transport,A6,"A6::car_ice::transport,A6::car_ev::transport,A6::demand_transport::transport"
transport,A7,"A7::car_ice::transport,A7::car_ev::transport,A7::demand_transport::transport"
transport,A8,"A8::demand_transport::transport,A8::car_ice::transport,A8::car_ev::transport"
transport,B1,"B1::car_ev::transport,B1::demand_transport::transport,B1::car_ice::transport"
transport,B2,"B2::car_ice::transport,B2::demand_transport::transport,B2::car_ev::transport"
transport,B3,"B3::car_ev::transport,B3::demand_transport::transport,B3::car_ice::transport"
transport,B4,"B4::car_ice::transport,B4::demand_transport::transport,B4::car_ev::transport"
transport,B5,"B5::car_ice::transport,B5::car_ev::transport,B5::demand_transport::transport"
transport,C1,"C1::car_ev::transport,C1::car_ice::transport,C1::demand_transport::transport"
transport,C10,"C10::car_ice::transport,C10::car_ev::transport,C10::demand_transport::transport"
transport,C11,"C11::demand_transport::transport,C11::car_ice::transport,C11::car_ev::transport"
transport,C12,"C12::car_ev::transport,C12::car_ice::transport,C12::demand_transport::transport"
transport,C2,"C2::car_ev::transport,C2::car_ice::transport,C2::demand_transport::transport"
transport,C3,"C3::car_ice::transport,C3::demand_transport::transport,C3::car_ev::transport"
transport,C4,"C4::car_ice::transport,C4::demand_transport::transport,C4::car_ev::transport"
transport,C5,"C5::car_ev::transport,C5::demand_transport::transport,C5::car_ice::transport"
transport,C6,"C6::car_ice::transport,C6::demand_transport::transport,C6::car_ev::transport"
transport,C7,"C7::demand_transport::transport,C7::car_ev::transport,C7::car_ice::transport"
transport,C8,"C8::car_ev::transport,C8::demand_transport::transport,C8::car_ice::transport"
transport,C9,"C9::demand_transport::transport,C9::car_ice::transport,C9::car_ev::transport"
water_heat,A1,"A1::solar_thermal_vt::water_heat,A1::demand_water_heat::water_heat,A1::gas_boiler::water_heat"
water_heat,A2,"A2::gas_boiler::water_heat,A2::demand_water_heat::water_heat,A2::solar_thermal_vt::water_heat"
water_heat,A3,"A3::solar_thermal_vt::water_heat,A3::demand_water_heat::water_heat,A3::gas_boiler::water_heat"
water_heat,A4,"A4::demand_water_heat::water_heat,A4::solar_thermal_vt::water_heat,A4::gas_boiler::water_heat"
water_heat,A5,"A5::solar_thermal_vt::water_heat,A5::demand_water_heat::water_heat,A5::gas_boiler::water_heat"
water_heat,A6,"A6::gas_boiler::water_heat,A6::demand_water_heat::water_heat,A6::solar_thermal_vt::water_heat"
water_heat,A7,"A7::gas_boiler::water_heat,A7::demand_water_heat::water_heat,A7::solar_thermal_vt::water_heat"
water_heat,A8,"A8::gas_boiler::water_heat,A8::solar_thermal_vt::water_heat,A8::demand_water_heat::water_heat"
water_heat,B1,"B1::solar_thermal_vt::water_heat,B1::gas_boiler::water_heat,B1::demand_water_heat::water_heat"
water_heat,B2,"B2::demand_water_heat::water_heat,B2::gas_boiler::water_heat,B2::solar_thermal_vt::water_heat"
water_heat,B3,"B3::solar_thermal_vt::water_heat,B3::demand_water_heat::water_heat,B3::gas_boiler::water_heat"
water_heat,B4,"B4::demand_water_heat::water_heat,B4::solar_thermal_vt::water_heat,B4::gas_boiler::water_heat"
water_heat,B5,"B5::demand_water_heat::water_heat,B5::gas_boiler::water_heat,B5::solar_thermal_vt::water_heat"
water_heat,C1,"C1::solar_thermal_vt::water_heat,C1::demand_water_heat::water_heat,C1::gas_boiler::water_heat"
water_heat,C10,"C10::demand_water_heat::water_heat,C10::gas_boiler::water_heat,C10::solar_thermal_vt::water_heat"
water_heat,C11,"C11::gas_boiler::water_heat,C11::demand_water_heat::water_heat,C11::solar_thermal_vt::water_heat"
water_heat,C12,"C12::gas_boiler::water_heat,C12::solar_thermal_vt::water_heat,C12::demand_water_heat::water_heat"
water_heat,C2,"C2::demand_water_heat::water_heat,C2::gas_boiler::water_heat,C2::solar_thermal_vt::water_heat"
water_heat,C3,"C3::demand_water_heat::water_heat,C3::solar_thermal_vt::water_heat,C3::gas_boiler::water_heat"
water_heat,C4,"C4::gas_boiler::water_heat,C4::solar_thermal_vt::water_heat,C4::demand_water_heat::water_heat"
water_heat,C5,"C5::demand_water_heat::water_heat,C5::solar_thermal_vt::water_heat,C5::gas_boiler::water_heat"
water_heat,C6,"C6::gas_boiler::water_heat,C6::solar_thermal_vt::water_heat,C6::demand_water_heat::water_heat"
water_heat,C7,"C7::solar_thermal_vt::water_heat,C7::demand_water_heat::water_heat,C7::gas_boiler::water_heat"
water_heat,C8,"C8::demand_water_heat::water_heat,C8::gas_boiler::water_heat,C8::solar_thermal_vt::water_heat"
water_heat,C9,"C9::demand_water_heat::water_heat,C9::solar_thermal_vt::water_heat,C9::gas_boiler::water_heat"
