carrier_tiers,locs,techs,lookup_loc_techs_conversion
out,A1,air_source_hp,A1::air_source_hp::space_heat
out,A1,car_ice,A1::car_ice::transport
out,A1,electric_heater,A1::electric_heater::space_heat
out,A1,electric_hob,A1::electric_hob::cooking
out,A1,gas_hob,A1::gas_hob::cooking
out,A1,ground_source_hp,A1::ground_source_hp::space_heat
out,A1,home_v1g_charging,A1::home_v1g_charging::passenger_car_electricity
out,A1,public_v1g_charging,A1::public_v1g_charging::passenger_car_electricity
out,A2,air_source_hp,A2::air_source_hp::space_heat
out,A2,car_ice,A2::car_ice::transport
out,A2,electric_heater,A2::electric_heater::space_heat
out,A2,electric_hob,A2::electric_hob::cooking
out,A2,gas_hob,A2::gas_hob::cooking
out,A2,ground_source_hp,A2::ground_source_hp::space_heat
out,A2,home_v1g_charging,A2::home_v1g_charging::passenger_car_electricity
out,A2,public_v1g_charging,A2::public_v1g_charging::passenger_car_electricity
out,A3,air_source_hp,A3::air_source_hp::space_heat
out,A3,car_ice,A3::car_ice::transport
out,A3,electric_heater,A3::electric_heater::space_heat
out,A3,electric_hob,A3::electric_hob::cooking
out,A3,gas_hob,A3::gas_hob::cooking
out,A3,ground_source_hp,A3::ground_source_hp::space_heat
out,A3,home_v1g_charging,A3::home_v1g_charging::passenger_car_electricity
out,A3,public_v1g_charging,A3::public_v1g_charging::passenger_car_electricity
out,A4,air_source_hp,A4::air_source_hp::space_heat
out,A4,car_ice,A4::car_ice::transport
out,A4,electric_heater,A4::electric_heater::space_heat
out,A4,electric_hob,A4::electric_hob::cooking
out,A4,gas_hob,A4::gas_hob::cooking
out,A4,ground_source_hp,A4::ground_source_hp::space_heat
out,A4,home_v1g_charging,A4::home_v1g_charging::passenger_car_electricity
out,A4,public_v1g_charging,A4::public_v1g_charging::passenger_car_electricity
out,A5,air_source_hp,A5::air_source_hp::space_heat
out,A5,car_ice,A5::car_ice::transport
out,A5,electric_heater,A5::electric_heater::space_heat
out,A5,electric_hob,A5::electric_hob::cooking
out,A5,gas_hob,A5::gas_hob::cooking
out,A5,ground_source_hp,A5::ground_source_hp::space_heat
out,A5,home_v1g_charging,A5::home_v1g_charging::passenger_car_electricity
out,A5,public_v1g_charging,A5::public_v1g_charging::passenger_car_electricity
out,A6,air_source_hp,A6::air_source_hp::space_heat
out,A6,car_ice,A6::car_ice::transport
out,A6,electric_heater,A6::electric_heater::space_heat
out,A6,electric_hob,A6::electric_hob::cooking
out,A6,gas_hob,A6::gas_hob::cooking
out,A6,ground_source_hp,A6::ground_source_hp::space_heat
out,A6,home_v1g_charging,A6::home_v1g_charging::passenger_car_electricity
out,A6,public_v1g_charging,A6::public_v1g_charging::passenger_car_electricity
out,A7,air_source_hp,A7::air_source_hp::space_heat
out,A7,car_ice,A7::car_ice::transport
out,A7,electric_heater,A7::electric_heater::space_heat
out,A7,electric_hob,A7::electric_hob::cooking
out,A7,gas_hob,A7::gas_hob::cooking
out,A7,ground_source_hp,A7::ground_source_hp::space_heat
out,A7,home_v1g_charging,A7::home_v1g_charging::passenger_car_electricity
out,A7,public_v1g_charging,A7::public_v1g_charging::passenger_car_electricity
out,A8,air_source_hp,A8::air_source_hp::space_heat
out,A8,car_ice,A8::car_ice::transport
out,A8,electric_heater,A8::electric_heater::space_heat
out,A8,electric_hob,A8::electric_hob::cooking
out,A8,gas_hob,A8::gas_hob::cooking
out,A8,ground_source_hp,A8::ground_source_hp::space_heat
out,A8,home_v1g_charging,A8::home_v1g_charging::passenger_car_electricity
out,A8,public_v1g_charging,A8::public_v1g_charging::passenger_car_electricity
out,B1,air_source_hp,B1::air_source_hp::space_heat
out,B1,car_ice,B1::car_ice::transport
out,B1,electric_heater,B1::electric_heater::space_heat
out,B1,electric_hob,B1::electric_hob::cooking
out,B1,gas_hob,B1::gas_hob::cooking
out,B1,ground_source_hp,B1::ground_source_hp::space_heat
out,B1,home_v1g_charging,B1::home_v1g_charging::passenger_car_electricity
out,B1,public_v1g_charging,B1::public_v1g_charging::passenger_car_electricity
out,B2,air_source_hp,B2::air_source_hp::space_heat
out,B2,car_ice,B2::car_ice::transport
out,B2,electric_heater,B2::electric_heater::space_heat
out,B2,electric_hob,B2::electric_hob::cooking
out,B2,gas_hob,B2::gas_hob::cooking
out,B2,ground_source_hp,B2::ground_source_hp::space_heat
out,B2,home_v1g_charging,B2::home_v1g_charging::passenger_car_electricity
out,B2,public_v1g_charging,B2::public_v1g_charging::passenger_car_electricity
out,B3,air_source_hp,B3::air_source_hp::space_heat
out,B3,car_ice,B3::car_ice::transport
out,B3,electric_heater,B3::electric_heater::space_heat
out,B3,electric_hob,B3::electric_hob::cooking
out,B3,gas_hob,B3::gas_hob::cooking
out,B3,ground_source_hp,B3::ground_source_hp::space_heat
out,B3,home_v1g_charging,B3::home_v1g_charging::passenger_car_electricity
out,B3,public_v1g_charging,B3::public_v1g_charging::passenger_car_electricity
out,B4,air_source_hp,B4::air_source_hp::space_heat
out,B4,car_ice,B4::car_ice::transport
out,B4,electric_heater,B4::electric_heater::space_heat
out,B4,electric_hob,B4::electric_hob::cooking
out,B4,gas_hob,B4::gas_hob::cooking
out,B4,ground_source_hp,B4::ground_source_hp::space_heat
out,B4,home_v1g_charging,B4::home_v1g_charging::passenger_car_electricity
out,B4,public_v1g_charging,B4::public_v1g_charging::passenger_car_electricity
out,B5,air_source_hp,B5::air_source_hp::space_heat
out,B5,car_ice,B5::car_ice::transport
out,B5,electric_heater,B5::electric_heater::space_heat
out,B5,electric_hob,B5::electric_hob::cooking
out,B5,gas_hob,B5::gas_hob::cooking
out,B5,ground_source_hp,B5::ground_source_hp::space_heat
out,B5,home_v1g_charging,B5::home_v1g_charging::passenger_car_electricity
out,B5,public_v1g_charging,B5::public_v1g_charging::passenger_car_electricity
out,C1,air_source_hp,C1::air_source_hp::space_heat
out,C1,car_ice,C1::car_ice::transport
out,C1,electric_heater,C1::electric_heater::space_heat
out,C1,electric_hob,C1::electric_hob::cooking
out,C1,gas_hob,C1::gas_hob::cooking
out,C1,ground_source_hp,C1::ground_source_hp::space_heat
out,C1,home_v1g_charging,C1::home_v1g_charging::passenger_car_electricity
out,C1,public_v1g_charging,C1::public_v1g_charging::passenger_car_electricity
out,C10,air_source_hp,C10::air_source_hp::space_heat
out,C10,car_ice,C10::car_ice::transport
out,C10,electric_heater,C10::electric_heater::space_heat
out,C10,electric_hob,C10::electric_hob::cooking
out,C10,gas_hob,C10::gas_hob::cooking
out,C10,ground_source_hp,C10::ground_source_hp::space_heat
out,C10,home_v1g_charging,C10::home_v1g_charging::passenger_car_electricity
out,C10,public_v1g_charging,C10::public_v1g_charging::passenger_car_electricity
out,C11,air_source_hp,C11::air_source_hp::space_heat
out,C11,car_ice,C11::car_ice::transport
out,C11,electric_heater,C11::electric_heater::space_heat
out,C11,electric_hob,C11::electric_hob::cooking
out,C11,gas_hob,C11::gas_hob::cooking
out,C11,ground_source_hp,C11::ground_source_hp::space_heat
out,C11,home_v1g_charging,C11::home_v1g_charging::passenger_car_electricity
out,C11,public_v1g_charging,C11::public_v1g_charging::passenger_car_electricity
out,C12,air_source_hp,C12::air_source_hp::space_heat
out,C12,car_ice,C12::car_ice::transport
out,C12,electric_heater,C12::electric_heater::space_heat
out,C12,electric_hob,C12::electric_hob::cooking
out,C12,gas_hob,C12::gas_hob::cooking
out,C12,ground_source_hp,C12::ground_source_hp::space_heat
out,C12,home_v1g_charging,C12::home_v1g_charging::passenger_car_electricity
out,C12,public_v1g_charging,C12::public_v1g_charging::passenger_car_electricity
out,C2,air_source_hp,C2::air_source_hp::space_heat
out,C2,car_ice,C2::car_ice::transport
out,C2,electric_heater,C2::electric_heater::space_heat
out,C2,electric_hob,C2::electric_hob::cooking
out,C2,gas_hob,C2::gas_hob::cooking
out,C2,ground_source_hp,C2::ground_source_hp::space_heat
out,C2,home_v1g_charging,C2::home_v1g_charging::passenger_car_electricity
out,C2,public_v1g_charging,C2::public_v1g_charging::passenger_car_electricity
out,C3,air_source_hp,C3::air_source_hp::space_heat
out,C3,car_ice,C3::car_ice::transport
out,C3,electric_heater,C3::electric_heater::space_heat
out,C3,electric_hob,C3::electric_hob::cooking
out,C3,gas_hob,C3::gas_hob::cooking
out,C3,ground_source_hp,C3::ground_source_hp::space_heat
out,C3,home_v1g_charging,C3::home_v1g_charging::passenger_car_electricity
out,C3,public_v1g_charging,C3::public_v1g_charging::passenger_car_electricity
out,C4,air_source_hp,C4::air_source_hp::space_heat
out,C4,car_ice,C4::car_ice::transport
out,C4,electric_heater,C4::electric_heater::space_heat
out,C4,electric_hob,C4::electric_hob::cooking
out,C4,gas_hob,C4::gas_hob::cooking
out,C4,ground_source_hp,C4::ground_source_hp::space_heat
out,C4,home_v1g_charging,C4::home_v1g_charging::passenger_car_electricity
out,C4,public_v1g_charging,C4::public_v1g_charging::passenger_car_electricity
out,C5,air_source_hp,C5::air_source_hp::space_heat
out,C5,car_ice,C5::car_ice::transport
out,C5,electric_heater,C5::electric_heater::space_heat
out,C5,electric_hob,C5::electric_hob::cooking
out,C5,gas_hob,C5::gas_hob::cooking
out,C5,ground_source_hp,C5::ground_source_hp::space_heat
out,C5,home_v1g_charging,C5::home_v1g_charging::passenger_car_electricity
out,C5,public_v1g_charging,C5::public_v1g_charging::passenger_car_electricity
out,C6,air_source_hp,C6::air_source_hp::space_heat
out,C6,car_ice,C6::car_ice::transport
out,C6,electric_heater,C6::electric_heater::space_heat
out,C6,electric_hob,C6::electric_hob::cooking
out,C6,gas_hob,C6::gas_hob::cooking
out,C6,ground_source_hp,C6::ground_source_hp::space_heat
out,C6,home_v1g_charging,C6::home_v1g_charging::passenger_car_electricity
out,C6,public_v1g_charging,C6::public_v1g_charging::passenger_car_electricity
out,C7,air_source_hp,C7::air_source_hp::space_heat
out,C7,car_ice,C7::car_ice::transport
out,C7,electric_heater,C7::electric_heater::space_heat
out,C7,electric_hob,C7::electric_hob::cooking
out,C7,gas_hob,C7::gas_hob::cooking
out,C7,ground_source_hp,C7::ground_source_hp::space_heat
out,C7,home_v1g_charging,C7::home_v1g_charging::passenger_car_electricity
out,C7,public_v1g_charging,C7::public_v1g_charging::passenger_car_electricity
out,C8,air_source_hp,C8::air_source_hp::space_heat
out,C8,car_ice,C8::car_ice::transport
out,C8,electric_heater,C8::electric_heater::space_heat
out,C8,electric_hob,C8::electric_hob::cooking
out,C8,gas_hob,C8::gas_hob::cooking
out,C8,ground_source_hp,C8::ground_source_hp::space_heat
out,C8,home_v1g_charging,C8::home_v1g_charging::passenger_car_electricity
out,C8,public_v1g_charging,C8::public_v1g_charging::passenger_car_electricity
out,C9,air_source_hp,C9::air_source_hp::space_heat
out,C9,car_ice,C9::car_ice::transport
out,C9,electric_heater,C9::electric_heater::space_heat
out,C9,electric_hob,C9::electric_hob::cooking
out,C9,gas_hob,C9::gas_hob::cooking
out,C9,ground_source_hp,C9::ground_source_hp::space_heat
out,C9,home_v1g_charging,C9::home_v1g_charging::passenger_car_electricity
out,C9,public_v1g_charging,C9::public_v1g_charging::passenger_car_electricity
in,A1,air_source_hp,A1::air_source_hp::electricity
in,A1,car_ice,A1::car_ice::diesel
in,A1,electric_heater,A1::electric_heater::electricity
in,A1,electric_hob,A1::electric_hob::electricity
in,A1,gas_hob,A1::gas_hob::gas
in,A1,ground_source_hp,A1::ground_source_hp::electricity
in,A1,home_v1g_charging,A1::home_v1g_charging::electricity
in,A1,public_v1g_charging,A1::public_v1g_charging::eletricity
in,A2,air_source_hp,A2::air_source_hp::electricity
in,A2,car_ice,A2::car_ice::diesel
in,A2,electric_heater,A2::electric_heater::electricity
in,A2,electric_hob,A2::electric_hob::electricity
in,A2,gas_hob,A2::gas_hob::gas
in,A2,ground_source_hp,A2::ground_source_hp::electricity
in,A2,home_v1g_charging,A2::home_v1g_charging::electricity
in,A2,public_v1g_charging,A2::public_v1g_charging::eletricity
in,A3,air_source_hp,A3::air_source_hp::electricity
in,A3,car_ice,A3::car_ice::diesel
in,A3,electric_heater,A3::electric_heater::electricity
in,A3,electric_hob,A3::electric_hob::electricity
in,A3,gas_hob,A3::gas_hob::gas
in,A3,ground_source_hp,A3::ground_source_hp::electricity
in,A3,home_v1g_charging,A3::home_v1g_charging::electricity
in,A3,public_v1g_charging,A3::public_v1g_charging::eletricity
in,A4,air_source_hp,A4::air_source_hp::electricity
in,A4,car_ice,A4::car_ice::diesel
in,A4,electric_heater,A4::electric_heater::electricity
in,A4,electric_hob,A4::electric_hob::electricity
in,A4,gas_hob,A4::gas_hob::gas
in,A4,ground_source_hp,A4::ground_source_hp::electricity
in,A4,home_v1g_charging,A4::home_v1g_charging::electricity
in,A4,public_v1g_charging,A4::public_v1g_charging::eletricity
in,A5,air_source_hp,A5::air_source_hp::electricity
in,A5,car_ice,A5::car_ice::diesel
in,A5,electric_heater,A5::electric_heater::electricity
in,A5,electric_hob,A5::electric_hob::electricity
in,A5,gas_hob,A5::gas_hob::gas
in,A5,ground_source_hp,A5::ground_source_hp::electricity
in,A5,home_v1g_charging,A5::home_v1g_charging::electricity
in,A5,public_v1g_charging,A5::public_v1g_charging::eletricity
in,A6,air_source_hp,A6::air_source_hp::electricity
in,A6,car_ice,A6::car_ice::diesel
in,A6,electric_heater,A6::electric_heater::electricity
in,A6,electric_hob,A6::electric_hob::electricity
in,A6,gas_hob,A6::gas_hob::gas
in,A6,ground_source_hp,A6::ground_source_hp::electricity
in,A6,home_v1g_charging,A6::home_v1g_charging::electricity
in,A6,public_v1g_charging,A6::public_v1g_charging::eletricity
in,A7,air_source_hp,A7::air_source_hp::electricity
in,A7,car_ice,A7::car_ice::diesel
in,A7,electric_heater,A7::electric_heater::electricity
in,A7,electric_hob,A7::electric_hob::electricity
in,A7,gas_hob,A7::gas_hob::gas
in,A7,ground_source_hp,A7::ground_source_hp::electricity
in,A7,home_v1g_charging,A7::home_v1g_charging::electricity
in,A7,public_v1g_charging,A7::public_v1g_charging::eletricity
in,A8,air_source_hp,A8::air_source_hp::electricity
in,A8,car_ice,A8::car_ice::diesel
in,A8,electric_heater,A8::electric_heater::electricity
in,A8,electric_hob,A8::electric_hob::electricity
in,A8,gas_hob,A8::gas_hob::gas
in,A8,ground_source_hp,A8::ground_source_hp::electricity
in,A8,home_v1g_charging,A8::home_v1g_charging::electricity
in,A8,public_v1g_charging,A8::public_v1g_charging::eletricity
in,B1,air_source_hp,B1::air_source_hp::electricity
in,B1,car_ice,B1::car_ice::diesel
in,B1,electric_heater,B1::electric_heater::electricity
in,B1,electric_hob,B1::electric_hob::electricity
in,B1,gas_hob,B1::gas_hob::gas
in,B1,ground_source_hp,B1::ground_source_hp::electricity
in,B1,home_v1g_charging,B1::home_v1g_charging::electricity
in,B1,public_v1g_charging,B1::public_v1g_charging::eletricity
in,B2,air_source_hp,B2::air_source_hp::electricity
in,B2,car_ice,B2::car_ice::diesel
in,B2,electric_heater,B2::electric_heater::electricity
in,B2,electric_hob,B2::electric_hob::electricity
in,B2,gas_hob,B2::gas_hob::gas
in,B2,ground_source_hp,B2::ground_source_hp::electricity
in,B2,home_v1g_charging,B2::home_v1g_charging::electricity
in,B2,public_v1g_charging,B2::public_v1g_charging::eletricity
in,B3,air_source_hp,B3::air_source_hp::electricity
in,B3,car_ice,B3::car_ice::diesel
in,B3,electric_heater,B3::electric_heater::electricity
in,B3,electric_hob,B3::electric_hob::electricity
in,B3,gas_hob,B3::gas_hob::gas
in,B3,ground_source_hp,B3::ground_source_hp::electricity
in,B3,home_v1g_charging,B3::home_v1g_charging::electricity
in,B3,public_v1g_charging,B3::public_v1g_charging::eletricity
in,B4,air_source_hp,B4::air_source_hp::electricity
in,B4,car_ice,B4::car_ice::diesel
in,B4,electric_heater,B4::electric_heater::electricity
in,B4,electric_hob,B4::electric_hob::electricity
in,B4,gas_hob,B4::gas_hob::gas
in,B4,ground_source_hp,B4::ground_source_hp::electricity
in,B4,home_v1g_charging,B4::home_v1g_charging::electricity
in,B4,public_v1g_charging,B4::public_v1g_charging::eletricity
in,B5,air_source_hp,B5::air_source_hp::electricity
in,B5,car_ice,B5::car_ice::diesel
in,B5,electric_heater,B5::electric_heater::electricity
in,B5,electric_hob,B5::electric_hob::electricity
in,B5,gas_hob,B5::gas_hob::gas
in,B5,ground_source_hp,B5::ground_source_hp::electricity
in,B5,home_v1g_charging,B5::home_v1g_charging::electricity
in,B5,public_v1g_charging,B5::public_v1g_charging::eletricity
in,C1,air_source_hp,C1::air_source_hp::electricity
in,C1,car_ice,C1::car_ice::diesel
in,C1,electric_heater,C1::electric_heater::electricity
in,C1,electric_hob,C1::electric_hob::electricity
in,C1,gas_hob,C1::gas_hob::gas
in,C1,ground_source_hp,C1::ground_source_hp::electricity
in,C1,home_v1g_charging,C1::home_v1g_charging::electricity
in,C1,public_v1g_charging,C1::public_v1g_charging::eletricity
in,C10,air_source_hp,C10::air_source_hp::electricity
in,C10,car_ice,C10::car_ice::diesel
in,C10,electric_heater,C10::electric_heater::electricity
in,C10,electric_hob,C10::electric_hob::electricity
in,C10,gas_hob,C10::gas_hob::gas
in,C10,ground_source_hp,C10::ground_source_hp::electricity
in,C10,home_v1g_charging,C10::home_v1g_charging::electricity
in,C10,public_v1g_charging,C10::public_v1g_charging::eletricity
in,C11,air_source_hp,C11::air_source_hp::electricity
in,C11,car_ice,C11::car_ice::diesel
in,C11,electric_heater,C11::electric_heater::electricity
in,C11,electric_hob,C11::electric_hob::electricity
in,C11,gas_hob,C11::gas_hob::gas
in,C11,ground_source_hp,C11::ground_source_hp::electricity
in,C11,home_v1g_charging,C11::home_v1g_charging::electricity
in,C11,public_v1g_charging,C11::public_v1g_charging::eletricity
in,C12,air_source_hp,C12::air_source_hp::electricity
in,C12,car_ice,C12::car_ice::diesel
in,C12,electric_heater,C12::electric_heater::electricity
in,C12,electric_hob,C12::electric_hob::electricity
in,C12,gas_hob,C12::gas_hob::gas
in,C12,ground_source_hp,C12::ground_source_hp::electricity
in,C12,home_v1g_charging,C12::home_v1g_charging::electricity
in,C12,public_v1g_charging,C12::public_v1g_charging::eletricity
in,C2,air_source_hp,C2::air_source_hp::electricity
in,C2,car_ice,C2::car_ice::diesel
in,C2,electric_heater,C2::electric_heater::electricity
in,C2,electric_hob,C2::electric_hob::electricity
in,C2,gas_hob,C2::gas_hob::gas
in,C2,ground_source_hp,C2::ground_source_hp::electricity
in,C2,home_v1g_charging,C2::home_v1g_charging::electricity
in,C2,public_v1g_charging,C2::public_v1g_charging::eletricity
in,C3,air_source_hp,C3::air_source_hp::electricity
in,C3,car_ice,C3::car_ice::diesel
in,C3,electric_heater,C3::electric_heater::electricity
in,C3,electric_hob,C3::electric_hob::electricity
in,C3,gas_hob,C3::gas_hob::gas
in,C3,ground_source_hp,C3::ground_source_hp::electricity
in,C3,home_v1g_charging,C3::home_v1g_charging::electricity
in,C3,public_v1g_charging,C3::public_v1g_charging::eletricity
in,C4,air_source_hp,C4::air_source_hp::electricity
in,C4,car_ice,C4::car_ice::diesel
in,C4,electric_heater,C4::electric_heater::electricity
in,C4,electric_hob,C4::electric_hob::electricity
in,C4,gas_hob,C4::gas_hob::gas
in,C4,ground_source_hp,C4::ground_source_hp::electricity
in,C4,home_v1g_charging,C4::home_v1g_charging::electricity
in,C4,public_v1g_charging,C4::public_v1g_charging::eletricity
in,C5,air_source_hp,C5::air_source_hp::electricity
in,C5,car_ice,C5::car_ice::diesel
in,C5,electric_heater,C5::electric_heater::electricity
in,C5,electric_hob,C5::electric_hob::electricity
in,C5,gas_hob,C5::gas_hob::gas
in,C5,ground_source_hp,C5::ground_source_hp::electricity
in,C5,home_v1g_charging,C5::home_v1g_charging::electricity
in,C5,public_v1g_charging,C5::public_v1g_charging::eletricity
in,C6,air_source_hp,C6::air_source_hp::electricity
in,C6,car_ice,C6::car_ice::diesel
in,C6,electric_heater,C6::electric_heater::electricity
in,C6,electric_hob,C6::electric_hob::electricity
in,C6,gas_hob,C6::gas_hob::gas
in,C6,ground_source_hp,C6::ground_source_hp::electricity
in,C6,home_v1g_charging,C6::home_v1g_charging::electricity
in,C6,public_v1g_charging,C6::public_v1g_charging::eletricity
in,C7,air_source_hp,C7::air_source_hp::electricity
in,C7,car_ice,C7::car_ice::diesel
in,C7,electric_heater,C7::electric_heater::electricity
in,C7,electric_hob,C7::electric_hob::electricity
in,C7,gas_hob,C7::gas_hob::gas
in,C7,ground_source_hp,C7::ground_source_hp::electricity
in,C7,home_v1g_charging,C7::home_v1g_charging::electricity
in,C7,public_v1g_charging,C7::public_v1g_charging::eletricity
in,C8,air_source_hp,C8::air_source_hp::electricity
in,C8,car_ice,C8::car_ice::diesel
in,C8,electric_heater,C8::electric_heater::electricity
in,C8,electric_hob,C8::electric_hob::electricity
in,C8,gas_hob,C8::gas_hob::gas
in,C8,ground_source_hp,C8::ground_source_hp::electricity
in,C8,home_v1g_charging,C8::home_v1g_charging::electricity
in,C8,public_v1g_charging,C8::public_v1g_charging::eletricity
in,C9,air_source_hp,C9::air_source_hp::electricity
in,C9,car_ice,C9::car_ice::diesel
in,C9,electric_heater,C9::electric_heater::electricity
in,C9,electric_hob,C9::electric_hob::electricity
in,C9,gas_hob,C9::gas_hob::gas
in,C9,ground_source_hp,C9::ground_source_hp::electricity
in,C9,home_v1g_charging,C9::home_v1g_charging::electricity
in,C9,public_v1g_charging,C9::public_v1g_charging::eletricity
